\BOOKMARK [0][-]{chapter.1}{\376\377\000G\000l\000o\000s\000s\000a\000i\000r\000e}{}% 1
\BOOKMARK [0][-]{chapter.2}{\376\377\000I\000n\000d\000i\000c\000e\000s\000\040\000a\000n\000d\000\040\000t\000a\000b\000l\000e\000s}{}% 2
\BOOKMARK [0][-]{section*.60}{\376\377\000I\000n\000d\000e\000x}{}% 3
