code;nom;capitale;aire;pop;continent;code_monnaie;nom_monnaie
AD;Andorra;Andorra la Vella;468;77006;EU;EUR;Euro
AE;United Arab Emirates;Abu Dhabi;82880;9630959;AS;;
AF;Afghanistan;Kabul;647500;37172386;AS;AFN;Afghani
AG;Antigua and Barbuda;St. John's;443;96286;NA;XCD;East Caribbean Dollar
AI;Anguilla;The Valley;102;13254;NA;XCD;East Caribbean Dollar
AL;Albania;Tirana;28748;2866376;EU;ALL;Lek
AM;Armenia;Yerevan;29800;2951776;AS;AMD;Armenian Dram
AN;Netherlands Antilles;Willemstad;960;300000;NA;;
AO;Angola;Luanda;1246700;30809762;AF;AOA;Kwanza
AQ;Antarctica;;14000000;0;AN;;No universal currency
AR;Argentina;Buenos Aires;2766890;44494502;SA;ARS;Argentine Peso
AS;American Samoa;Pago Pago;199;55465;OC;USD;US Dollar
AT;Austria;Vienna;83858;8847037;EU;EUR;Euro
AU;Australia;Canberra;7686850;24992369;OC;AUD;Australian Dollar
AW;Aruba;Oranjestad;193;105845;NA;AWG;Aruban Florin
AX;Åland;Mariehamn;1580;26711;EU;;
AZ;Azerbaijan;Baku;86600;9942334;AS;AZN;Azerbaijanian Manat
BA;Bosnia and Herzegovina;Sarajevo;51129;3323929;EU;BAM;Convertible Mark
BB;Barbados;Bridgetown;431;286641;NA;BBD;Barbados Dollar
BD;Bangladesh;Dhaka;144000;161356039;AS;BDT;Taka
BE;Belgium;Brussels;30510;11422068;EU;EUR;Euro
BF;Burkina Faso;Ouagadougou;274200;19751535;AF;XOF;CFA Franc BCEAO
BG;Bulgaria;Sofia;110910;7000039;EU;BGN;Bulgarian Lev
BH;Bahrain;Manama;665;1569439;AS;BHD;Bahraini Dinar
BI;Burundi;Gitega;27830;11175378;AF;BIF;Burundi Franc
BJ;Benin;Porto-Novo;112620;11485048;AF;XOF;CFA Franc BCEAO
BL;Saint Barthélemy;Gustavia;21;8450;NA;EUR;Euro
BM;Bermuda;Hamilton;53;63968;NA;BMD;Bermudian Dollar
BN;Brunei;Bandar Seri Begawan;5770;428962;AS;;
BO;Bolivia;Sucre;1098580;11353142;SA;;
BQ;Bonaire Sint Eustatius and Saba;;328;18012;NA;;
BR;Brazil;Brasilia;8511965;209469333;SA;BRL;Brazilian Real
BS;Bahamas;Nassau;13940;385640;NA;;
BT;Bhutan;Thimphu;47000;754394;AS;BTN;Ngultrum
BT;Bhutan;Thimphu;47000;754394;AS;INR;Indian Rupee
BV;Bouvet Island;;49;0;AN;NOK;Norwegian Krone
BW;Botswana;Gaborone;600370;2254126;AF;BWP;Pula
BY;Belarus;Minsk;207600;9485386;EU;BYN;Belarussian Ruble
BZ;Belize;Belmopan;22966;383071;NA;BZD;Belize Dollar
CA;Canada;Ottawa;9984670;37058856;NA;CAD;Canadian Dollar
CC;Cocos [Keeling] Islands;West Island;14;628;AS;;
CD;DR Congo;Kinshasa;2345410;84068091;AF;;
CF;Central African Republic;Bangui;622984;4666377;AF;;
CG;Congo Republic;Brazzaville;342000;5244363;AF;;
CH;Switzerland;Bern;41290;8516543;EU;CHE;WIR Euro
CH;Switzerland;Bern;41290;8516543;EU;CHF;Swiss Franc
CH;Switzerland;Bern;41290;8516543;EU;CHW;WIR Franc
CI;Ivory Coast;Yamoussoukro;322460;25069229;AF;;
CK;Cook Islands;Avarua;240;21388;OC;;
CL;Chile;Santiago;756950;18729160;SA;CLF;Unidad de Fomento
CL;Chile;Santiago;756950;18729160;SA;CLP;Chilean Peso
CM;Cameroon;Yaounde;475440;25216237;AF;XAF;CFA Franc BEAC
CN;China;Beijing;9596960;1392730000;AS;CNY;Yuan Renminbi
CO;Colombia;Bogota;1138910;49648685;SA;COP;Colombian Peso
CO;Colombia;Bogota;1138910;49648685;SA;COU;Unidad de Valor Real
CR;Costa Rica;San Jose;51100;4999441;NA;CRC;Costa Rican Colon
CS;Serbia and Montenegro;Belgrade;102350;10829175;EU;;
CU;Cuba;Havana;110860;11338138;NA;CUC;Peso Convertible
CU;Cuba;Havana;110860;11338138;NA;CUP;Cuban Peso
CV;Cabo Verde;Praia;4033;543767;AF;CVE;Cabo Verde Escudo
CW;Curaçao;Willemstad;444;159849;NA;ANG;Netherlands Antillean Guilder
CX;Christmas Island;Flying Fish Cove;135;1500;OC;AUD;Australian Dollar
CY;Cyprus;Nicosia;9250;1189265;EU;EUR;Euro
CZ;Czechia;Prague;78866;10625695;EU;;
DE;Germany;Berlin;357021;82927922;EU;EUR;Euro
DJ;Djibouti;Djibouti;23000;958920;AF;DJF;Djibouti Franc
DK;Denmark;Copenhagen;43094;5797446;EU;DKK;Danish Krone
DM;Dominica;Roseau;754;71625;NA;XCD;East Caribbean Dollar
DO;Dominican Republic;Santo Domingo;48730;10627165;NA;;
DZ;Algeria;Algiers;2381740;42228429;AF;DZD;Algerian Dinar
EC;Ecuador;Quito;283560;17084357;SA;USD;US Dollar
EE;Estonia;Tallinn;45226;1320884;EU;EUR;Euro
EG;Egypt;Cairo;1001450;98423595;AF;EGP;Egyptian Pound
EH;Western Sahara;El-Aaiun;266000;273008;AF;MAD;Moroccan Dirham
ER;Eritrea;Asmara;121320;0;AF;ERN;Nakfa
ES;Spain;Madrid;504782;46723749;EU;EUR;Euro
ET;Ethiopia;Addis Ababa;1127127;109224559;AF;ETB;Ethiopian Birr
FI;Finland;Helsinki;337030;5518050;EU;EUR;Euro
FJ;Fiji;Suva;18270;883483;OC;FJD;Fiji Dollar
FK;Falkland Islands;Stanley;12173;2638;SA;;
FM;Micronesia;Palikir;702;112640;OC;;
FO;Faroe Islands;Torshavn;1399;48497;EU;;
FR;France;Paris;547030;66987244;EU;EUR;Euro
GA;Gabon;Libreville;267667;2119275;AF;XAF;CFA Franc BEAC
GB;United Kingdom;London;244820;66488991;EU;;
GD;Grenada;St. George's;344;111454;NA;XCD;East Caribbean Dollar
GE;Georgia;Tbilisi;69700;3731000;AS;GEL;Lari
GF;French Guiana;Cayenne;91000;195506;SA;EUR;Euro
GG;Guernsey;St Peter Port;78;65228;EU;GBP;Pound Sterling
GH;Ghana;Accra;239460;29767108;AF;GHS;Ghana Cedi
GI;Gibraltar;Gibraltar;6.5;33718;EU;GIP;Gibraltar Pound
GL;Greenland;Nuuk;2166086;56025;NA;DKK;Danish Krone
GM;Gambia;Banjul;11300;2280102;AF;;
GN;Guinea;Conakry;245857;12414318;AF;GNF;Guinea Franc
GP;Guadeloupe;Basse-Terre;1780;443000;NA;EUR;Euro
GQ;Equatorial Guinea;Malabo;28051;1308974;AF;XAF;CFA Franc BEAC
GR;Greece;Athens;131940;10727668;EU;EUR;Euro
GS;South Georgia and South Sandwich Islands;Grytviken;3903;30;AN;;
GT;Guatemala;Guatemala City;108890;17247807;NA;GTQ;Quetzal
GU;Guam;Hagatna;549;165768;OC;USD;US Dollar
GW;Guinea-Bissau;Bissau;36120;1874309;AF;XOF;CFA Franc BCEAO
GY;Guyana;Georgetown;214970;779004;SA;GYD;Guyana Dollar
HK;Hong Kong;Hong Kong;1092;7451000;AS;HKD;Hong Kong Dollar
HM;Heard Island and McDonald Islands;;412;0;AN;AUD;Australian Dollar
HN;Honduras;Tegucigalpa;112090;9587522;NA;HNL;Lempira
HR;Croatia;Zagreb;56542;4089400;EU;HRK;Kuna
HT;Haiti;Port-au-Prince;27750;11123176;NA;HTG;Gourde
HT;Haiti;Port-au-Prince;27750;11123176;NA;USD;US Dollar
HU;Hungary;Budapest;93030;9768785;EU;HUF;Forint
ID;Indonesia;Jakarta;1919440;267663435;AS;IDR;Rupiah
IE;Ireland;Dublin;70280;4853506;EU;EUR;Euro
IL;Israel;Jerusalem;20770;8883800;AS;ILS;New Israeli Sheqel
IM;Isle of Man;Douglas;572;84077;EU;GBP;Pound Sterling
IN;India;New Delhi;3287590;1352617328;AS;INR;Indian Rupee
IO;British Indian Ocean Territory;Diego Garcia;60;4000;AS;;
IQ;Iraq;Baghdad;437072;38433600;AS;IQD;Iraqi Dinar
IR;Iran;Tehran;1648000;81800269;AS;;
IS;Iceland;Reykjavik;103000;353574;EU;ISK;Iceland Krona
IT;Italy;Rome;301230;60431283;EU;EUR;Euro
JE;Jersey;Saint Helier;116;90812;EU;GBP;Pound Sterling
JM;Jamaica;Kingston;10991;2934855;NA;JMD;Jamaican Dollar
JO;Jordan;Amman;92300;9956011;AS;JOD;Jordanian Dinar
JP;Japan;Tokyo;377835;126529100;AS;JPY;Yen
KE;Kenya;Nairobi;582650;51393010;AF;KES;Kenyan Shilling
KG;Kyrgyzstan;Bishkek;198500;6315800;AS;KGS;Som
KH;Cambodia;Phnom Penh;181040;16249798;AS;KHR;Riel
KI;Kiribati;Tarawa;811;115847;OC;AUD;Australian Dollar
KM;Comoros;Moroni;2170;832322;AF;;
KN;St Kitts and Nevis;Basseterre;261;52441;NA;;
KP;North Korea;Pyongyang;120540;25549819;AS;;
KR;South Korea;Seoul;98480;51635256;AS;;
KW;Kuwait;Kuwait City;17820;4137309;AS;KWD;Kuwaiti Dinar
KY;Cayman Islands;George Town;262;64174;NA;;
KZ;Kazakhstan;Nur-Sultan;2717300;18276499;AS;KZT;Tenge
LA;Laos;Vientiane;236800;7061507;AS;;
LB;Lebanon;Beirut;10400;6848925;AS;LBP;Lebanese Pound
LC;Saint Lucia;Castries;616;181889;NA;XCD;East Caribbean Dollar
LI;Liechtenstein;Vaduz;160;37910;EU;CHF;Swiss Franc
LK;Sri Lanka;Colombo;65610;21670000;AS;LKR;Sri Lanka Rupee
LR;Liberia;Monrovia;111370;4818977;AF;LRD;Liberian Dollar
LS;Lesotho;Maseru;30355;2108132;AF;LSL;Loti
LS;Lesotho;Maseru;30355;2108132;AF;ZAR;Rand
LT;Lithuania;Vilnius;65200;2789533;EU;EUR;Euro
LU;Luxembourg;Luxembourg;2586;607728;EU;EUR;Euro
LV;Latvia;Riga;64589;1926542;EU;EUR;Euro
LY;Libya;Tripoli;1759540;6678567;AF;LYD;Libyan Dinar
MA;Morocco;Rabat;446550;36029138;AF;MAD;Moroccan Dirham
MC;Monaco;Monaco;1.9;38682;EU;EUR;Euro
MD;Moldova;Chisinau;33843;3545883;EU;;
ME;Montenegro;Podgorica;14026;622345;EU;EUR;Euro
MF;Saint Martin;Marigot;53;37264;NA;;
MG;Madagascar;Antananarivo;587040;26262368;AF;MGA;Malagasy Ariary
MH;Marshall Islands;Majuro;181.3;58413;OC;;
MK;North Macedonia;Skopje;25333;2082958;EU;;
ML;Mali;Bamako;1240000;19077690;AF;XOF;CFA Franc BCEAO
MM;Myanmar;Nay Pyi Taw;678500;53708395;AS;MMK;Kyat
MN;Mongolia;Ulaanbaatar;1565000;3170208;AS;MNT;Tugrik
MO;Macao;Macao;254;631636;AS;MOP;Pataca
MP;Northern Mariana Islands;Saipan;477;56882;OC;;
MQ;Martinique;Fort-de-France;1100;432900;NA;EUR;Euro
MR;Mauritania;Nouakchott;1030700;4403319;AF;MRU;Ouguiya
MS;Montserrat;Plymouth;102;9341;NA;XCD;East Caribbean Dollar
MT;Malta;Valletta;316;483530;EU;EUR;Euro
MU;Mauritius;Port Louis;2040;1265303;AF;MUR;Mauritius Rupee
MV;Maldives;Male;300;515696;AS;MVR;Rufiyaa
MW;Malawi;Lilongwe;118480;17563749;AF;MWK;Kwacha
MX;Mexico;Mexico City;1972550;126190788;NA;MXN;Mexican Peso
MX;Mexico;Mexico City;1972550;126190788;NA;MXV;Mexican Unidad de Inversion (UDI)
MY;Malaysia;Kuala Lumpur;329750;31528585;AS;MYR;Malaysian Ringgit
MZ;Mozambique;Maputo;801590;29495962;AF;MZN;Mozambique Metical
NA;Namibia;Windhoek;825418;2448255;AF;NAD;Namibia Dollar
NA;Namibia;Windhoek;825418;2448255;AF;ZAR;Rand
NC;New Caledonia;Noumea;19060;284060;OC;XPF;CFP Franc
NE;Niger;Niamey;1267000;22442948;AF;;
NF;Norfolk Island;Kingston;34.6;1828;OC;AUD;Australian Dollar
NG;Nigeria;Abuja;923768;195874740;AF;NGN;Naira
NI;Nicaragua;Managua;129494;6465513;NA;NIO;Cordoba Oro
NL;Netherlands;Amsterdam;41526;17231017;EU;;
NO;Norway;Oslo;324220;5314336;EU;NOK;Norwegian Krone
NP;Nepal;Kathmandu;140800;28087871;AS;NPR;Nepalese Rupee
NR;Nauru;Yaren;21;12704;OC;AUD;Australian Dollar
NU;Niue;Alofi;260;2166;OC;NZD;New Zealand Dollar
NZ;New Zealand;Wellington;268680;4885500;OC;NZD;New Zealand Dollar
OM;Oman;Muscat;212460;4829483;AS;OMR;Rial Omani
PA;Panama;Panama City;78200;4176873;NA;PAB;Balboa
PA;Panama;Panama City;78200;4176873;NA;USD;US Dollar
PE;Peru;Lima;1285220;31989256;SA;PEN;Nuevo Sol
PF;French Polynesia;Papeete;4167;277679;OC;XPF;CFP Franc
PG;Papua New Guinea;Port Moresby;462840;8606316;OC;PGK;Kina
PH;Philippines;Manila;300000;106651922;AS;;
PK;Pakistan;Islamabad;803940;212215030;AS;PKR;Pakistan Rupee
PL;Poland;Warsaw;312685;37978548;EU;PLN;Zloty
PM;Saint Pierre and Miquelon;Saint-Pierre;242;7012;NA;EUR;Euro
PN;Pitcairn Islands;Adamstown;47;46;OC;;
PR;Puerto Rico;San Juan;9104;3195153;NA;USD;US Dollar
PS;Palestine;East Jerusalem;5970;4569087;AS;;
PT;Portugal;Lisbon;92391;10281762;EU;EUR;Euro
PW;Palau;Melekeok;458;17907;OC;USD;US Dollar
PY;Paraguay;Asuncion;406750;6956071;SA;PYG;Guarani
QA;Qatar;Doha;11437;2781677;AS;QAR;Qatari Rial
RE;Réunion;Saint-Denis;2517;776948;AF;EUR;Euro
RO;Romania;Bucharest;237500;19473936;EU;RON;Romanian Leu
RS;Serbia;Belgrade;88361;6982084;EU;RSD;Serbian Dinar
RU;Russia;Moscow;17100000;144478050;EU;;
RW;Rwanda;Kigali;26338;12301939;AF;RWF;Rwanda Franc
SA;Saudi Arabia;Riyadh;1960582;33699947;AS;SAR;Saudi Riyal
SB;Solomon Islands;Honiara;28450;652858;OC;SBD;Solomon Islands Dollar
SC;Seychelles;Victoria;455;96762;AF;SCR;Seychelles Rupee
SD;Sudan;Khartoum;1861484;41801533;AF;;
SE;Sweden;Stockholm;449964;10183175;EU;SEK;Swedish Krona
SG;Singapore;Singapore;692.7;5638676;AS;SGD;Singapore Dollar
SH;Saint Helena;Jamestown;410;7460;AF;;
SI;Slovenia;Ljubljana;20273;2067372;EU;EUR;Euro
SJ;Svalbard and Jan Mayen;Longyearbyen;62049;2550;EU;NOK;Norwegian Krone
SK;Slovakia;Bratislava;48845;5447011;EU;EUR;Euro
SL;Sierra Leone;Freetown;71740;7650154;AF;SLL;Leone
SM;San Marino;San Marino;61.2;33785;EU;EUR;Euro
SN;Senegal;Dakar;196190;15854360;AF;XOF;CFA Franc BCEAO
SO;Somalia;Mogadishu;637657;15008154;AF;SOS;Somali Shilling
SR;Suriname;Paramaribo;163270;575991;SA;SRD;Surinam Dollar
SS;South Sudan;Juba;644329;8260490;AF;SSP;South Sudanese Pound
ST;São Tomé and Príncipe;Sao Tome;1001;197700;AF;;
SV;El Salvador;San Salvador;21040;6420744;NA;SVC;El Salvador Colon
SV;El Salvador;San Salvador;21040;6420744;NA;USD;US Dollar
SX;Sint Maarten;Philipsburg;21;40654;NA;;
SY;Syria;Damascus;185180;16906283;AS;;
SZ;Eswatini;Mbabane;17363;1136191;AF;;
TC;Turks and Caicos Islands;Cockburn Town;430;37665;NA;;
TD;Chad;N'Djamena;1284000;15477751;AF;XAF;CFA Franc BEAC
TF;French Southern Territories;Port-aux-Francais;7829;140;AN;;
TG;Togo;Lome;56785;7889094;AF;XOF;CFA Franc BCEAO
TH;Thailand;Bangkok;514000;69428524;AS;THB;Baht
TJ;Tajikistan;Dushanbe;143100;9100837;AS;TJS;Somoni
TK;Tokelau;;10;1466;OC;NZD;New Zealand Dollar
TL;Timor-Leste;Dili;15007;1267972;OC;USD;US Dollar
TM;Turkmenistan;Ashgabat;488100;5850908;AS;TMT;Turkmenistan New Manat
TN;Tunisia;Tunis;163610;11565204;AF;TND;Tunisian Dinar
TO;Tonga;Nuku'alofa;748;103197;OC;TOP;Pa’anga
TR;Turkey;Ankara;780580;82319724;AS;TRY;Turkish Lira
TT;Trinidad and Tobago;Port of Spain;5128;1389858;NA;TTD;Trinidad and Tobago Dollar
TV;Tuvalu;Funafuti;26;11508;OC;AUD;Australian Dollar
TW;Taiwan;Taipei;35980;22894384;AS;;
TZ;Tanzania;Dodoma;945087;56318348;AF;;
UA;Ukraine;Kyiv;603700;44622516;EU;UAH;Hryvnia
UG;Uganda;Kampala;236040;42723139;AF;UGX;Uganda Shilling
UM;U.S. Minor Outlying Islands;;0;0;OC;;
US;United States;Washington;9629091;327167434;NA;;
UY;Uruguay;Montevideo;176220;3449299;SA;UYI;Uruguay Peso en Unidades Indexadas (URUIURUI)
UY;Uruguay;Montevideo;176220;3449299;SA;UYU;Peso Uruguayo
UZ;Uzbekistan;Tashkent;447400;32955400;AS;UZS;Uzbekistan Sum
VA;Vatican City;Vatican City;0.4;921;EU;;
VC;St Vincent and Grenadines;Kingstown;389;110211;NA;;
VE;Venezuela;Caracas;912050;28870195;SA;;
VG;British Virgin Islands;Road Town;153;29802;NA;;
VI;U.S. Virgin Islands;Charlotte Amalie;352;106977;NA;;
VN;Vietnam;Hanoi;329560;95540395;AS;;
VU;Vanuatu;Port Vila;12200;292680;OC;VUV;Vatu
WF;Wallis and Futuna;Mata Utu;274;16025;OC;XPF;CFP Franc
WS;Samoa;Apia;2944;196130;OC;WST;Tala
XK;Kosovo;Pristina;10908;1845300;EU;;
YE;Yemen;Sanaa;527970;28498687;AS;YER;Yemeni Rial
YT;Mayotte;Mamoudzou;374;279471;AF;EUR;Euro
ZA;South Africa;Pretoria;1219912;57779622;AF;ZAR;Rand
ZM;Zambia;Lusaka;752614;17351822;AF;ZMW;Zambian Kwacha
ZW;Zimbabwe;Harare;390580;14439018;AF;ZWL;Zimbabwe Dollar
