#FIG 3.2
Landscape
Center
Metric
A4      
100.00
Single
-2
1200 2
6 180 135 1980 1980
2 2 0 1 0 7 50 0 -1 0.000 0 0 -1 0 0 5
	 180 315 1980 315 1980 1980 180 1980 180 315
2 2 0 1 0 7 50 0 -1 0.000 0 0 -1 0 0 5
	 180 315 1980 315 1980 540 180 540 180 315
2 1 0 1 0 7 50 0 -1 0.000 0 0 7 0 0 2
	 810 315 810 540
2 1 0 1 0 7 50 0 -1 0.000 0 0 7 0 0 2
	 585 315 585 540
2 1 0 1 0 7 50 0 -1 0.000 0 0 7 0 0 2
	 405 315 405 540
2 1 0 1 0 7 50 0 -1 0.000 0 0 7 0 0 2
	 990 315 990 540
2 1 0 1 0 7 50 0 -1 0.000 0 0 7 0 0 2
	 1485 315 1485 540
2 1 0 1 0 7 50 0 -1 0.000 0 0 7 0 0 2
	 1665 315 1665 540
2 1 0 1 0 7 50 0 -1 0.000 0 0 -1 1 0 2
	1 1 1.00 60.00 120.00
	 270 540 270 1350
2 1 0 1 0 7 50 0 -1 0.000 0 0 -1 1 0 2
	1 1 1.00 60.00 120.00
	 720 540 720 1530
2 2 0 1 0 7 100 0 15 0.000 0 0 7 0 0 5
	 180 1620 1980 1620 1980 1800 180 1800 180 1620
2 2 0 1 0 7 100 0 15 0.000 0 0 7 0 0 5
	 180 1800 1980 1800 1980 1980 180 1980 180 1800
2 2 0 1 0 7 100 0 15 0.000 0 0 7 0 0 5
	 180 1440 1980 1440 1980 1620 180 1620 180 1440
2 2 0 1 0 7 100 0 15 0.000 0 0 7 0 0 5
	 180 1260 1980 1260 1980 1440 180 1440 180 1260
2 2 0 1 0 7 100 0 15 0.000 0 0 7 0 0 5
	 180 1080 1980 1080 1980 1260 180 1260 180 1080
2 2 0 1 0 7 100 0 15 0.000 0 0 7 0 0 5
	 180 900 1980 900 1980 1080 180 1080 180 900
2 2 0 1 0 7 100 0 15 0.000 0 0 7 0 0 5
	 180 720 1980 720 1980 900 180 900 180 720
2 2 0 1 0 7 100 0 17 0.000 0 0 7 0 0 5
	 180 540 1980 540 1980 720 180 720 180 540
4 0 0 50 0 0 10 0.0000 4 105 150 630 495 46\001
4 0 0 50 0 0 10 0.0000 4 105 150 225 495 16\001
4 0 0 50 0 0 10 0.0000 4 105 150 1530 495 57\001
4 0 0 50 0 0 10 0.0000 4 105 675 765 270 Bloc F1.12\001
-6
6 2115 135 3915 1980
2 2 0 1 0 7 50 0 -1 0.000 0 0 -1 0 0 5
	 2115 315 3915 315 3915 1980 2115 1980 2115 315
2 2 0 1 0 7 50 0 -1 0.000 0 0 -1 0 0 5
	 2115 315 3915 315 3915 540 2115 540 2115 315
2 1 0 1 0 7 50 0 -1 0.000 0 0 7 0 0 2
	 2745 315 2745 540
2 1 0 1 0 7 50 0 -1 0.000 0 0 7 0 0 2
	 2520 315 2520 540
2 1 0 1 0 7 50 0 -1 0.000 0 0 7 0 0 2
	 2340 315 2340 540
2 1 0 1 0 7 50 0 -1 0.000 0 0 7 0 0 2
	 2925 315 2925 540
2 1 0 1 0 7 50 0 -1 0.000 0 0 7 0 0 2
	 3420 315 3420 540
2 1 0 1 0 7 50 0 -1 0.000 0 0 7 0 0 2
	 3600 315 3600 540
2 1 0 1 0 7 50 0 -1 0.000 0 0 -1 1 0 2
	1 1 1.00 60.00 120.00
	 2205 540 2205 1260
2 1 0 1 0 7 50 0 -1 0.000 0 0 -1 1 0 2
	1 1 1.00 60.00 120.00
	 2655 540 2655 1530
2 2 0 1 0 7 100 0 15 0.000 0 0 7 0 0 5
	 2115 1620 3915 1620 3915 1800 2115 1800 2115 1620
2 2 0 1 0 7 100 0 15 0.000 0 0 7 0 0 5
	 2115 1800 3915 1800 3915 1980 2115 1980 2115 1800
2 2 0 1 0 7 100 0 15 0.000 0 0 7 0 0 5
	 2115 630 3915 630 3915 810 2115 810 2115 630
2 2 0 1 0 7 100 0 15 0.000 0 0 7 0 0 5
	 2115 810 3915 810 3915 990 2115 990 2115 810
2 2 0 1 0 7 100 0 15 0.000 0 0 7 0 0 5
	 2115 990 3915 990 3915 1170 2115 1170 2115 990
2 2 0 1 0 7 100 0 15 0.000 0 0 7 0 0 5
	 2115 1170 3915 1170 3915 1350 2115 1350 2115 1170
2 2 0 1 0 7 100 0 15 0.000 0 0 7 0 0 5
	 2115 1350 3915 1350 3915 1620 2115 1620 2115 1350
2 2 0 1 0 7 100 0 17 0.000 0 0 7 0 0 5
	 2115 540 3915 540 3915 630 2115 630 2115 540
4 0 0 50 0 0 10 0.0000 4 105 150 2565 495 46\001
4 0 0 50 0 0 10 0.0000 4 105 150 2160 495 16\001
4 0 0 50 0 0 10 0.0000 4 105 150 3465 495 57\001
4 0 0 50 0 0 10 0.0000 4 105 675 2700 270 Bloc F1.12\001
-6
6 4050 135 5985 1980
2 2 0 1 0 7 50 0 -1 0.000 0 0 -1 0 0 5
	 4050 315 5850 315 5850 1980 4050 1980 4050 315
2 2 0 1 0 7 50 0 -1 0.000 0 0 -1 0 0 5
	 4050 315 5850 315 5850 540 4050 540 4050 315
2 1 0 1 0 7 50 0 -1 0.000 0 0 7 0 0 2
	 4680 315 4680 540
2 1 0 1 0 7 50 0 -1 0.000 0 0 7 0 0 2
	 4455 315 4455 540
2 1 0 1 0 7 50 0 -1 0.000 0 0 7 0 0 2
	 4275 315 4275 540
2 1 0 1 0 7 50 0 -1 0.000 0 0 7 0 0 2
	 4860 315 4860 540
2 1 0 1 0 7 50 0 -1 0.000 0 0 7 0 0 2
	 5355 315 5355 540
2 1 0 1 0 7 50 0 -1 0.000 0 0 7 0 0 2
	 5535 315 5535 540
2 1 0 1 0 7 50 0 -1 0.000 0 0 -1 1 0 2
	1 1 1.00 60.00 120.00
	 4140 540 4140 1485
2 2 0 1 0 7 100 0 15 0.000 0 0 7 0 0 5
	 4050 1620 5850 1620 5850 1800 4050 1800 4050 1620
2 2 0 1 0 7 100 0 15 0.000 0 0 7 0 0 5
	 4050 1800 5850 1800 5850 1980 4050 1980 4050 1800
2 2 0 1 0 7 100 0 15 0.000 0 0 7 0 0 5
	 4050 1440 5850 1440 5850 1620 4050 1620 4050 1440
2 2 0 1 0 7 100 0 15 0.000 0 0 7 0 0 5
	 4050 1260 5850 1260 5850 1440 4050 1440 4050 1260
2 2 0 1 0 7 100 0 15 0.000 0 0 7 0 0 5
	 4050 1080 5850 1080 5850 1260 4050 1260 4050 1080
2 2 0 1 0 7 100 0 15 0.000 0 0 7 0 0 5
	 4050 900 5850 900 5850 1080 4050 1080 4050 900
2 2 0 1 0 7 100 0 17 0.000 0 0 7 0 0 5
	 4050 540 5850 540 5850 900 4050 900 4050 540
2 1 0 1 0 7 100 0 -1 0.000 0 0 -1 1 0 3
	1 1 1.00 60.00 120.00
	 4590 495 4590 765 5985 765
4 0 0 50 0 0 10 0.0000 4 105 150 4500 495 46\001
4 0 0 50 0 0 10 0.0000 4 105 150 4095 495 16\001
4 0 0 50 0 0 10 0.0000 4 105 150 5400 495 57\001
4 0 0 50 0 0 10 0.0000 4 105 675 4635 270 Bloc F1.12\001
-6
4 0 0 100 0 0 10 0.0000 4 135 1260 360 2250 (a) Situation initiale\001
4 0 0 100 0 0 10 0.0000 4 150 1665 2205 2205 (b) Apr\350s agrandissement de \001
4 0 0 100 0 0 10 0.0000 4 135 1425 2160 2385        l'enregistrement 46\001
4 0 0 100 0 0 10 0.0000 4 150 1140 4185 2205 (c) D\351placement de \001
4 0 0 100 0 0 10 0.0000 4 135 1425 4140 2385        l'enregistrement 46\001
