#FIG 3.2
Landscape
Center
Metric
A4      
100.00
Single
-2
1200 2
6 630 855 1980 1665
6 720 900 1215 1260
4 0 0 50 0 0 10 0.0000 4 105 495 720 1035 Adresse\001
4 0 0 50 0 0 10 0.0000 4 135 465 720 1230 logique\001
-6
6 1350 900 1890 1260
4 0 0 50 0 0 10 0.0000 4 105 495 1350 1035 Adresse\001
4 0 0 50 0 0 10 0.0000 4 135 540 1350 1230 physique\001
-6
2 2 0 1 0 7 50 0 -1 0.000 0 0 7 0 0 5
	 630 855 1890 855 1890 1665 630 1665 630 855
2 1 0 1 0 7 50 0 -1 0.000 0 0 -1 0 0 2
	 1260 855 1260 1665
2 1 0 1 0 7 50 0 -1 0.000 0 0 -1 0 0 2
	 630 1305 1890 1305
4 0 0 50 0 0 10 0.0000 4 105 555 1395 1575 F1.12.46\001
4 0 0 50 0 0 10 0.0000 4 105 450 765 1575 #90887\001
-6
2 2 0 1 0 7 100 0 -1 0.000 0 0 -1 0 0 5
	 450 315 4500 315 4500 630 450 630 450 315
2 1 0 1 0 7 100 0 -1 0.000 0 0 -1 0 0 2
	 900 315 900 630
2 1 0 1 0 7 100 0 -1 0.000 0 0 -1 0 0 2
	 1350 315 1350 630
2 1 0 1 0 7 100 0 -1 0.000 0 0 -1 0 0 2
	 2700 315 2700 630
2 1 0 1 0 7 100 0 -1 0.000 0 0 -1 0 0 2
	 4050 315 4050 630
2 2 0 1 0 7 100 0 15 0.000 0 0 7 0 0 5
	 3150 315 3600 315 3600 630 3150 630 3150 315
2 1 0 1 0 7 50 0 -1 0.000 0 0 -1 0 0 1
	 1215 315
2 1 0 1 0 7 50 0 -1 0.000 0 0 -1 0 0 2
	 3150 720 2835 1170
2 1 0 1 0 7 50 0 -1 0.000 0 0 -1 0 0 2
	 3600 720 3915 1170
2 2 0 1 0 7 50 0 -1 0.000 0 0 -1 0 0 5
	 2835 1260 3960 1260 3960 1575 2835 1575 2835 1260
2 2 0 1 0 7 50 0 15 0.000 0 0 -1 0 0 5
	 2835 1260 2925 1260 2925 1575 2835 1575 2835 1260
2 2 0 1 0 7 50 0 0 0.000 0 0 -1 0 0 5
	 3825 1260 3960 1260 3960 1575 3825 1575 3825 1260
2 1 0 1 0 7 100 0 -1 0.000 0 0 -1 0 0 2
	 3060 1260 3060 1575
2 1 0 1 0 7 100 0 -1 0.000 0 0 -1 0 0 2
	 3195 1260 3195 1575
2 1 0 1 0 7 100 0 -1 0.000 0 0 -1 0 0 2
	 3690 1260 3690 1575
2 1 0 1 0 7 100 0 -1 0.000 0 0 -1 0 0 2
	 3555 1260 3555 1575
2 1 0 1 0 7 50 0 -1 0.000 0 0 7 1 0 4
	1 1 1.00 60.00 120.00
	 1575 1665 1575 1890 3645 1890 3645 1575
4 0 0 50 0 0 12 0.0000 4 15 135 1935 495 ...\001
4 0 0 50 0 0 12 0.0000 4 15 135 3330 1440 ...\001
4 0 0 50 0 0 10 0.0000 4 105 150 3285 270 12\001
4 0 0 50 0 0 10 0.0000 4 105 165 450 270 F1\001
4 0 0 50 0 0 10 0.0000 4 105 150 3555 1215 46\001
