#FIG 3.2
Portrait
Center
Inches
A4      
100.00
Single
-2
1200 2
5 1 0 1 0 7 0 0 20 4.000 0 0 1 0 2906.250 1875.000 2850 1800 3000 1875 2850 1950
	1 1 1.00 60.00 120.00
5 1 0 1 0 7 0 0 20 4.000 0 0 1 0 2981.250 1875.000 2925 1800 3075 1875 2925 1950
	1 1 1.00 60.00 120.00
5 1 0 1 0 7 0 0 20 4.000 0 0 1 0 2981.250 1875.000 2925 1800 3075 1875 2925 1950
	1 1 1.00 60.00 120.00
5 1 0 1 0 7 0 0 20 4.000 0 0 1 0 2868.750 1856.250 2850 1725 3000 1875 2775 1950
	1 1 1.00 60.00 120.00
5 1 0 1 0 7 0 0 20 4.000 0 0 1 0 2583.500 -1406.500 2850 2250 2317 2250 1800 2175
	1 1 1.00 60.00 120.00
6 3825 675 4275 1050
4 0 0 0 0 0 10 0.0000 4 150 375 3825 825 t\352te de\001
4 0 0 0 0 0 10 0.0000 4 105 435 3825 1020 lecture\001
-6
6 3525 2175 4350 2625
4 0 0 0 0 0 10 0.0000 4 150 765 3525 2325 d\351placement \001
4 0 0 0 0 0 10 0.0000 4 150 480 3525 2520 des t\352tes\001
-6
6 1425 975 4350 1575
6 3600 1125 4350 1275
2 3 0 1 0 7 0 0 0 0.000 0 0 7 0 0 5
	 3600 1125 3675 1275 3750 1275 3825 1125 3600 1125
2 1 0 1 0 7 0 0 -1 4.000 0 0 -1 0 0 2
	 3825 1125 4350 1125
-6
6 3600 1350 4350 1500
2 3 1 1 0 7 0 0 -1 4.000 0 0 7 0 0 5
	 3600 1500 3675 1350 3750 1350 3825 1500 3600 1500
2 1 1 1 0 7 0 0 -1 4.000 0 0 7 0 0 2
	 3825 1500 4350 1500
-6
1 1 0 1 0 7 50 0 -1 0.000 1 0.0000 2700 1275 1275 300 2700 1275 3975 1575
1 1 0 1 0 7 50 0 10 0.000 1 0.0000 2700 1275 1050 225 2700 1275 3750 1500
1 1 0 1 0 7 0 0 20 0.000 1 0.0000 2700 1275 960 180 2700 1275 3660 1455
2 1 0 1 0 7 0 0 -1 3.000 0 0 -1 0 0 2
	 3825 1500 4275 1500
-6
6 1425 1575 4350 2175
6 3600 1725 4350 1875
2 3 0 1 0 7 0 0 0 0.000 0 0 7 0 0 5
	 3600 1725 3675 1875 3750 1875 3825 1725 3600 1725
2 1 0 1 0 7 0 0 -1 4.000 0 0 -1 0 0 2
	 3825 1725 4350 1725
-6
6 3600 1950 4350 2100
2 3 1 1 0 7 0 0 -1 4.000 0 0 7 0 0 5
	 3600 2100 3675 1950 3750 1950 3825 2100 3600 2100
2 1 1 1 0 7 0 0 -1 4.000 0 0 7 0 0 2
	 3825 2100 4350 2100
-6
1 1 0 1 0 7 50 0 -1 0.000 1 0.0000 2700 1875 1275 300 2700 1875 3975 2175
1 1 0 1 0 7 50 0 10 0.000 1 0.0000 2700 1875 1050 225 2700 1875 3750 2100
1 1 0 1 0 7 0 0 20 0.000 1 0.0000 2700 1875 960 180 2700 1875 3660 2055
2 1 0 1 0 7 0 0 -1 3.000 0 0 -1 0 0 2
	 3825 2100 4275 2100
-6
6 3600 300 4350 450
2 3 0 1 0 7 0 0 0 0.000 0 0 7 0 0 5
	 3600 300 3675 450 3750 450 3825 300 3600 300
2 1 0 1 0 7 0 0 -1 4.000 0 0 -1 0 0 2
	 3825 300 4350 300
-6
6 3600 525 4350 675
2 3 1 1 0 7 0 0 -1 4.000 0 0 7 0 0 5
	 3600 675 3675 525 3750 525 3825 675 3600 675
2 1 1 1 0 7 0 0 -1 4.000 0 0 7 0 0 2
	 3825 675 4350 675
-6
1 1 0 1 0 7 0 0 -1 4.000 1 0.0000 2700 75 142 67 2700 75 2842 142
1 1 0 1 0 7 50 0 -1 0.000 1 0.0000 2700 450 1275 300 2700 450 3975 750
1 1 0 1 0 7 50 0 10 0.000 1 0.0000 2700 450 1050 225 2700 450 3750 675
1 1 0 1 0 7 0 0 20 0.000 1 0.0000 2700 450 960 180 2700 450 3660 630
2 1 0 1 0 7 0 0 20 4.000 0 0 -1 0 0 2
	 2850 75 2850 435
2 1 0 1 0 7 0 0 20 4.000 0 0 -1 0 0 2
	 2550 435 2550 75
2 3 0 0 0 7 0 0 20 2.000 0 0 7 0 0 5
	 2550 75 2550 435 2850 435 2850 75 2550 75
2 3 0 0 0 7 0 0 20 2.000 0 0 7 0 0 5
	 2550 750 2550 1275 2850 1275 2850 750 2550 750
2 1 0 1 0 7 0 0 20 4.000 0 0 -1 0 0 2
	 2850 750 2850 1275
2 1 0 1 0 7 0 0 20 4.000 0 0 -1 0 0 2
	 2550 1275 2550 750
2 1 0 1 0 7 0 0 20 4.000 0 0 -1 0 0 2
	 2850 1575 2850 1875
2 1 0 1 0 7 0 0 20 4.000 0 0 -1 0 0 2
	 2550 1875 2550 1575
2 3 0 0 0 7 0 0 20 2.000 0 0 7 0 0 5
	 2550 1575 2550 1875 2850 1875 2850 1575 2550 1575
2 1 0 1 0 7 0 0 20 4.000 0 0 -1 1 0 2
	1 1 1.00 60.00 120.00
	 1800 0 1800 375
2 1 0 1 0 7 0 0 20 4.000 0 0 -1 1 0 2
	1 1 1.00 60.00 120.00
	 4125 0 4125 300
2 1 0 1 0 7 0 0 20 4.000 0 0 -1 1 0 2
	1 1 1.00 60.00 120.00
	 3825 900 3675 1125
2 1 0 1 0 7 0 0 20 4.000 0 0 -1 1 0 2
	1 1 1.00 60.00 120.00
	 3825 825 3675 675
2 1 0 1 0 7 0 0 20 4.000 0 0 -1 1 0 2
	1 1 1.00 60.00 120.00
	 1350 975 1650 975
2 1 0 1 0 7 0 0 20 4.000 0 0 -1 1 1 2
	1 1 1.00 60.00 120.00
	1 1 1.00 60.00 120.00
	 3600 2175 4200 2175
2 2 0 1 0 7 0 0 20 4.000 0 0 -1 0 0 5
	 4350 975 5175 975 5175 1350 4350 1350 4350 975
2 1 0 1 0 7 0 0 20 4.000 0 0 -1 1 0 2
	1 1 1.00 60.00 120.00
	 5175 1200 5700 1200
2 2 0 1 0 7 0 0 0 0.000 0 0 -1 0 0 5
	 4275 0 4350 0 4350 2250 4275 2250 4275 0
2 1 1 1 0 7 0 0 -1 4.000 0 0 -1 0 0 2
	 1650 450 1650 1875
2 1 1 1 0 7 0 0 -1 4.000 0 0 -1 0 0 2
	 1725 450 1725 1875
2 1 0 1 0 7 0 0 -1 3.000 0 0 -1 0 0 2
	 3825 675 4275 675
2 2 0 1 0 7 0 0 0 4.000 0 0 -1 0 0 5
	 2467 622 2775 622 2775 675 2467 675 2467 622
2 3 0 1 0 7 0 0 0 4.000 0 0 -1 0 0 5
	 1935 562 1785 502 1762 555 1920 600 1935 562
2 1 0 1 0 7 0 0 0 4.000 0 0 -1 1 0 2
	1 1 1.00 60.00 120.00
	 2175 0 1950 600
2 1 0 1 0 7 0 0 0 4.000 0 0 -1 1 0 2
	1 1 1.00 60.00 120.00
	 2250 0 2625 600
3 2 0 1 0 7 0 0 -1 4.000 0 0 0 3
	 2550 435 2707 495 2850 435
	 0.000 -1.000 0.000
3 2 0 1 0 7 0 0 -1 4.000 0 0 0 3
	 2550 1275 2700 1327 2850 1275
	 0.000 -1.000 0.000
3 2 0 1 0 7 0 0 -1 4.000 0 0 0 3
	 2550 1875 2692 1935 2850 1875
	 0.000 -1.000 0.000
4 0 0 0 0 0 10 0.0000 4 105 255 3975 -75 bras\001
4 0 0 0 0 0 10 0.0000 4 135 300 1650 -75 piste\001
4 0 0 0 0 0 10 0.0000 4 135 510 825 975 cylindre\001
4 0 0 0 0 0 10 0.0000 4 135 390 1200 675 disque\001
4 0 0 0 0 0 10 0.0000 4 135 390 1200 2100 disque\001
4 0 0 0 0 0 10 0.0000 4 135 390 1200 1500 disque\001
4 0 0 0 0 0 10 0.0000 4 105 510 2175 2400 rotation\001
4 0 0 0 0 0 10 0.0000 4 75 210 2625 -75 axe\001
4 0 0 0 0 0 10 0.0000 4 150 630 4425 1200 Contr\364leur\001
4 0 0 0 0 0 10 0.0000 4 150 465 5250 1425 donn\351es\001
4 0 0 0 0 0 10 0.0000 4 105 330 2100 -75 blocs\001
