#FIG 3.2
Portrait
Center
Inches
Letter  
100.00
Single
-2
1200 2
6 77 1802 902 2027
2 2 0 1 -1 7 0 0 -1 0.000 0 0 0 0 0 5
	 78 1803 228 1803 228 1953 78 1953 78 1803
2 2 0 1 -1 7 0 0 -1 0.000 0 0 0 0 0 5
	 303 1803 453 1803 453 1953 303 1953 303 1803
2 2 0 1 -1 7 0 0 -1 0.000 0 0 0 0 0 5
	 678 1803 828 1803 828 1953 678 1953 678 1803
-6
6 1053 1803 1878 2028
2 2 0 1 -1 7 0 0 -1 0.000 0 0 0 0 0 5
	 1054 1804 1204 1804 1204 1954 1054 1954 1054 1804
2 2 0 1 -1 7 0 0 -1 0.000 0 0 0 0 0 5
	 1279 1804 1429 1804 1429 1954 1279 1954 1279 1804
2 2 0 1 -1 7 0 0 -1 0.000 0 0 0 0 0 5
	 1654 1804 1804 1804 1804 1954 1654 1954 1654 1804
-6
6 2328 1803 3153 2028
2 2 0 1 -1 7 0 0 -1 0.000 0 0 0 0 0 5
	 2329 1804 2479 1804 2479 1954 2329 1954 2329 1804
2 2 0 1 -1 7 0 0 -1 0.000 0 0 0 0 0 5
	 2554 1804 2704 1804 2704 1954 2554 1954 2554 1804
2 2 0 1 -1 7 0 0 -1 0.000 0 0 0 0 0 5
	 2929 1804 3079 1804 3079 1954 2929 1954 2929 1804
-6
1 3 0 1 -1 7 0 0 -1 0.000 1 0.0000 2701 1651 480 480 2701 1651 3001 2026
2 1 0 1 -1 7 0 0 -1 0.000 0 0 -1 0 0 4
	 3600 375 3600 300 5100 300 5100 375
2 2 0 1 -1 7 0 0 -1 0.000 0 0 0 0 0 5
	 3601 1426 3751 1426 3751 2026 3601 2026 3601 1426
2 2 0 1 -1 7 0 0 -1 0.000 0 0 0 0 0 5
	 3901 1426 4051 1426 4051 2026 3901 2026 3901 1426
2 2 0 1 -1 7 0 0 -1 0.000 0 0 0 0 0 5
	 5176 1426 5326 1426 5326 2026 5176 2026 5176 1426
2 1 0 1 -1 7 0 0 -1 0.000 0 0 -1 0 0 2
	 3826 451 3826 601
2 1 0 1 -1 7 0 0 -1 0.000 0 0 -1 0 0 2
	 4126 451 4126 601
2 2 0 1 -1 7 0 0 -1 0.000 0 0 0 0 0 5
	 4876 1426 5026 1426 5026 2026 4876 2026 4876 1426
2 1 0 1 -1 7 0 0 -1 0.000 0 0 -1 0 0 2
	 5101 451 5101 601
2 1 0 1 -1 7 0 0 -1 0.000 0 0 -1 0 0 2
	 4801 451 4801 601
2 1 0 1 -1 7 0 0 -1 0.000 0 0 -1 0 0 4
	 3526 2026 3526 2101 5101 2101 5101 2026
2 2 0 1 -1 7 0 0 -1 0.000 0 0 7 0 0 5
	 3601 451 5326 451 5326 601 3601 601 3601 451
2 1 0 1 -1 7 0 0 -1 0.000 0 0 7 1 0 2
	1 1 1.00 60.00 120.00
	 3976 1426 3976 601
2 1 0 1 -1 7 0 0 -1 0.000 0 0 7 1 0 2
	1 1 1.00 60.00 120.00
	 4951 1426 4951 601
2 1 0 1 -1 7 0 0 -1 0.000 0 0 7 0 1 2
	1 1 1.00 60.00 120.00
	 5251 1426 5251 601
2 1 0 1 -1 7 0 0 -1 0.000 0 0 7 1 0 2
	1 1 1.00 60.00 120.00
	 3151 1501 3376 1276
2 1 0 1 -1 7 0 0 -1 0.000 0 0 -1 0 0 2
	 151 1801 376 1501
2 1 0 1 -1 7 0 0 -1 0.000 0 0 -1 0 0 2
	 376 1801 451 1501
2 1 0 1 -1 7 0 0 -1 0.000 0 0 -1 0 0 2
	 751 1801 526 1501
2 1 0 1 -1 7 0 0 -1 0.000 0 0 -1 0 0 2
	 1126 1801 1276 1501
2 1 0 1 -1 7 0 0 -1 0.000 0 0 -1 0 0 2
	 1351 1801 1351 1501
2 1 0 1 -1 7 0 0 -1 0.000 0 0 -1 0 0 2
	 1726 1801 1501 1501
2 1 0 1 -1 7 0 0 -1 0.000 0 0 -1 0 0 2
	 376 1351 601 1051
2 1 0 1 -1 7 0 0 -1 0.000 0 0 -1 0 0 2
	 1276 1351 1051 1051
2 1 0 1 -1 7 0 0 -1 0.000 0 0 -1 0 0 2
	 826 901 1201 526
2 1 0 1 -1 7 0 0 -1 0.000 0 0 -1 0 0 2
	 2401 901 2026 526
2 1 0 1 -1 7 0 0 -1 0.000 0 0 -1 0 0 2
	 2626 1801 2626 1501
2 2 0 1 -1 7 0 0 -1 0.000 0 0 0 0 0 5
	 77 377 3077 377 3077 527 77 527 77 377
2 2 0 1 -1 7 0 0 -1 0.000 0 0 0 0 0 5
	 1053 1353 1803 1353 1803 1503 1053 1503 1053 1353
2 2 0 1 -1 7 0 0 -1 0.000 0 0 0 0 0 5
	 2328 1353 3078 1353 3078 1503 2328 1503 2328 1353
2 2 0 1 -1 7 0 0 -1 0.000 0 0 0 0 0 5
	 78 1353 828 1353 828 1503 78 1503 78 1353
2 1 0 1 -1 7 0 0 -1 0.000 0 0 -1 0 0 4
	 2178 903 3078 903 3078 1053 2178 1053
2 2 0 1 -1 7 0 0 -1 0.000 0 0 0 0 0 5
	 78 903 1803 903 1803 1053 78 1053 78 903
2 1 0 1 -1 7 0 0 -1 0.000 0 0 -1 0 0 2
	 2382 1796 2457 1496
2 1 0 1 -1 7 0 0 -1 0.000 0 0 -1 0 0 2
	 3022 1801 3022 1501
2 1 0 1 0 7 100 0 -1 0.000 0 0 7 0 0 2
	 3676 1426 3676 601
3 2 0 1 -1 7 0 0 -1 0.000 0 0 0 6
	 3300 75 3300 525 3750 900 5100 900 5475 600 5475 75
	 0.000 -1.000 -1.000 -1.000 -1.000 0.000
4 0 -1 0 0 0 12 0.0000 4 15 135 4425 2025 ...\001
4 0 -1 0 0 1 10 0.0000 4 75 75 5213 1838 o\001
4 0 -1 0 0 1 10 0.0000 4 75 75 2626 1456 o\001
4 0 -1 0 0 0 12 0.0000 4 15 135 2026 1951 ...\001
4 0 -1 0 0 0 12 0.0000 4 15 135 2026 1501 ...\001
4 0 -1 0 0 0 12 0.0000 4 15 135 1951 1051 ...\001
4 0 0 100 0 1 10 0.0000 2 165 345 2475 1725 $i_2$\001
4 0 0 100 0 1 10 0.0000 2 165 345 3525 1350 $i_1$\001
4 0 0 100 0 0 10 0.0000 6 165 345 3825 1350 $i_2$\001
4 0 0 100 0 0 10 0.0000 6 165 690 4575 1350 $i_{m-1}$\001
4 0 0 100 0 0 10 0.0000 6 165 690 2700 1725 $i_{m-1}$\001
4 0 0 100 0 0 10 0.0000 6 165 345 2250 1725 $i_1$\001
4 0 0 100 0 0 10 0.0000 6 135 1230 525 2250 Les paquets initiaux\001
4 0 0 100 0 0 10 0.0000 6 120 930 975 300 Le r\351sultat tri\351\001
4 0 0 100 0 1 10 0.0000 2 150 1275 3525 2250 Les paquets en entr\351e\001
4 0 0 100 0 1 10 0.0000 2 135 450 5177 2252 Paquet \001
4 0 0 100 0 1 10 0.0000 2 105 525 5177 2450 en sortie\001
4 0 0 100 0 1 10 0.0000 4 150 420 3900 225 fan-in\001
