#FIG 3.2
Landscape
Center
Inches
A4      
100.00
Single
-2
1200 2
6 1425 3075 2700 3825
2 2 0 1 -1 7 0 0 -1 0.000 0 0 0 0 0 5
	 1425 3075 2700 3075 2700 3825 1425 3825 1425 3075
4 0 0 100 0 -1 10 0.0000 4 135 1095 1575 3300 Impitoyable 1992\001
4 0 0 100 0 -1 10 0.0000 4 135 795 1575 3525 Shining 1980\001
4 0 0 100 0 -1 10 0.0000 4 105 735 1575 3750 Smoke 1995\001
-6
6 3150 2925 4575 3900
2 2 0 1 -1 7 0 0 -1 0.000 0 0 0 0 0 5
	 3150 2925 4575 2925 4575 3900 3150 3900 3150 2925
4 0 0 100 0 -1 10 0.0000 4 105 1005 3225 3150 Manhattan 1979\001
4 0 0 100 0 -1 10 0.0000 4 135 1050 3225 3375 Metropolis 1926\001
4 0 0 100 0 -1 10 0.0000 4 105 1005 3225 3600 Casablanca 1942\001
4 0 0 100 0 -1 10 0.0000 4 135 1275 3225 3825 Reservoir Dogs 1992\001
-6
6 4050 1950 5250 2775
2 2 0 1 -1 7 0 0 -1 0.000 0 0 0 0 0 5
	 4050 1950 5250 1950 5250 2775 4050 2775 4050 1950
4 0 0 100 0 -1 10 0.0000 4 105 750 4200 2175 Brazil  1984\001
4 0 0 100 0 -1 10 0.0000 4 135 825 4200 2400 Vertigo 1958\001
4 0 0 100 0 -1 10 0.0000 4 135 960 4200 2625 Greystoke 1984\001
-6
6 2550 1125 3975 2025
2 2 0 1 -1 7 0 0 -1 0.000 0 0 0 0 0 5
	 2550 1125 3975 1125 3975 2025 2550 2025 2550 1125
4 0 0 100 0 -1 10 0.0000 4 105 1035 2700 1350 Annie Hall 1977\001
4 0 0 100 0 -1 10 0.0000 4 135 1155 2700 1575 Underground 1995\001
4 0 0 100 0 -1 10 0.0000 4 135 885 2700 1800 Psychose 1960\001
-6
6 975 975 2250 1875
2 2 0 1 -1 7 0 0 -1 0.000 0 0 0 0 0 5
	 975 975 2250 975 2250 1875 975 1875 975 975
4 0 0 100 0 -1 10 0.0000 4 105 1125 1050 1200 Jurassic Park 1992\001
4 0 0 100 0 -1 10 0.0000 4 105 1035 1050 1425 Twin Peaks 1990\001
4 0 0 100 0 -1 10 0.0000 4 135 990 1050 1650 Easy Rider 1969\001
-6
2 1 0 1 -1 7 0 0 -1 0.000 0 0 -1 1 0 3
	1 1 1.00 60.00 120.00
	 600 3300 1050 3300 1425 3300
2 1 0 1 -1 7 0 0 -1 0.000 0 0 -1 1 0 3
	1 1 1.00 60.00 120.00
	 600 3000 2775 3000 3150 3000
2 1 0 1 -1 7 0 0 -1 0.000 0 0 -1 1 0 2
	1 1 1.00 60.00 120.00
	 600 2700 4050 2700
2 1 0 1 -1 7 0 0 -1 0.000 0 0 -1 1 0 3
	1 1 1.00 60.00 120.00
	 600 2400 3525 2400 3525 2025
2 1 0 1 -1 7 0 0 -1 0.000 0 0 -1 1 0 3
	1 1 1.00 60.00 120.00
	 600 2100 1575 2100 1575 1875
2 1 0 1 -1 7 0 0 -1 0.000 0 0 -1 0 0 2
	 226 2251 601 2251
2 1 0 1 -1 7 0 0 -1 0.000 0 0 -1 0 0 2
	 226 2551 601 2551
2 1 0 1 -1 7 0 0 -1 0.000 0 0 -1 0 0 2
	 226 2851 601 2851
2 1 0 1 -1 7 0 0 -1 0.000 0 0 -1 0 0 2
	 226 3151 601 3151
2 1 0 1 -1 7 0 0 -1 0.000 0 0 -1 0 0 2
	 226 3451 601 3451
2 2 0 1 -1 7 0 0 -1 0.000 0 0 0 0 0 5
	 226 1951 601 1951 601 3451 226 3451 226 1951
2 1 0 1 0 7 100 0 -1 0.000 0 0 -1 1 0 2
	1 1 1.00 60.00 120.00
	 600 1200 825 1200
2 1 0 1 0 7 100 0 -1 0.000 0 0 -1 1 0 2
	1 1 1.00 60.00 120.00
	 450 1725 450 2025
2 4 0 0 0 7 300 0 20 0.000 0 0 7 0 0 5
	 5325 3975 5325 825 75 825 75 3975 5325 3975
4 0 0 100 0 0 10 0.0000 4 105 75 376 2176 0\001
4 0 0 100 0 0 10 0.0000 4 105 75 376 2476 1\001
4 0 0 100 0 0 10 0.0000 4 105 75 376 2776 2\001
4 0 0 100 0 0 10 0.0000 4 105 75 376 3076 3\001
4 0 0 100 0 0 10 0.0000 4 105 75 376 3376 4\001
4 0 0 100 0 0 10 0.0000 4 150 615 150 3675 R\351pertoire\001
4 0 0 100 0 2 10 0.0000 4 150 405 225 1650 entr\351es\001
4 0 0 100 0 2 10 0.0000 4 105 345 225 1275 blocs\001
