%!PS-Adobe-2.0 EPSF-2.0
%%Title: hachage-3.eps
%%Creator: fig2dev Version 3.2 Patchlevel 1
%%CreationDate: Fri May 11 10:49:02 2001
%%For: rigaux@cartier ()
%%Orientation: Portrait
%%BoundingBox: 0 0 335 241
%%Pages: 0
%%BeginSetup
%%EndSetup
%%Magnification: 1.0000
%%EndComments
/$F2psDict 200 dict def
$F2psDict begin
$F2psDict /mtrx matrix put
/col-1 {0 setgray} bind def
/col0 {0.000 0.000 0.000 srgb} bind def
/col1 {0.000 0.000 1.000 srgb} bind def
/col2 {0.000 1.000 0.000 srgb} bind def
/col3 {0.000 1.000 1.000 srgb} bind def
/col4 {1.000 0.000 0.000 srgb} bind def
/col5 {1.000 0.000 1.000 srgb} bind def
/col6 {1.000 1.000 0.000 srgb} bind def
/col7 {1.000 1.000 1.000 srgb} bind def
/col8 {0.000 0.000 0.560 srgb} bind def
/col9 {0.000 0.000 0.690 srgb} bind def
/col10 {0.000 0.000 0.820 srgb} bind def
/col11 {0.530 0.810 1.000 srgb} bind def
/col12 {0.000 0.560 0.000 srgb} bind def
/col13 {0.000 0.690 0.000 srgb} bind def
/col14 {0.000 0.820 0.000 srgb} bind def
/col15 {0.000 0.560 0.560 srgb} bind def
/col16 {0.000 0.690 0.690 srgb} bind def
/col17 {0.000 0.820 0.820 srgb} bind def
/col18 {0.560 0.000 0.000 srgb} bind def
/col19 {0.690 0.000 0.000 srgb} bind def
/col20 {0.820 0.000 0.000 srgb} bind def
/col21 {0.560 0.000 0.560 srgb} bind def
/col22 {0.690 0.000 0.690 srgb} bind def
/col23 {0.820 0.000 0.820 srgb} bind def
/col24 {0.500 0.190 0.000 srgb} bind def
/col25 {0.630 0.250 0.000 srgb} bind def
/col26 {0.750 0.380 0.000 srgb} bind def
/col27 {1.000 0.500 0.500 srgb} bind def
/col28 {1.000 0.630 0.630 srgb} bind def
/col29 {1.000 0.750 0.750 srgb} bind def
/col30 {1.000 0.880 0.880 srgb} bind def
/col31 {1.000 0.840 0.000 srgb} bind def

end
save
-9.0 289.0 translate
1 -1 scale

/cp {closepath} bind def
/ef {eofill} bind def
/gr {grestore} bind def
/gs {gsave} bind def
/sa {save} bind def
/rs {restore} bind def
/l {lineto} bind def
/m {moveto} bind def
/rm {rmoveto} bind def
/n {newpath} bind def
/s {stroke} bind def
/sh {show} bind def
/slc {setlinecap} bind def
/slj {setlinejoin} bind def
/slw {setlinewidth} bind def
/srgb {setrgbcolor} bind def
/rot {rotate} bind def
/sc {scale} bind def
/sd {setdash} bind def
/ff {findfont} bind def
/sf {setfont} bind def
/scf {scalefont} bind def
/sw {stringwidth} bind def
/tr {translate} bind def
/tnt {dup dup currentrgbcolor
  4 -2 roll dup 1 exch sub 3 -1 roll mul add
  4 -2 roll dup 1 exch sub 3 -1 roll mul add
  4 -2 roll dup 1 exch sub 3 -1 roll mul add srgb}
  bind def
/shd {dup dup currentrgbcolor 4 -2 roll mul 4 -2 roll mul
  4 -2 roll mul srgb} bind def
/reencdict 12 dict def /ReEncode { reencdict begin
/newcodesandnames exch def /newfontname exch def /basefontname exch def
/basefontdict basefontname findfont def /newfont basefontdict maxlength dict def
basefontdict { exch dup /FID ne { dup /Encoding eq
{ exch dup length array copy newfont 3 1 roll put }
{ exch newfont 3 1 roll put } ifelse } { pop pop } ifelse } forall
newfont /FontName newfontname put newcodesandnames aload pop
128 1 255 { newfont /Encoding get exch /.notdef put } for
newcodesandnames length 2 idiv { newfont /Encoding get 3 1 roll put } repeat
newfontname newfont definefont pop end } def
/isovec [
8#200 /grave 8#201 /acute 8#202 /circumflex 8#203 /tilde
8#204 /macron 8#205 /breve 8#206 /dotaccent 8#207 /dieresis
8#210 /ring 8#211 /cedilla 8#212 /hungarumlaut 8#213 /ogonek 8#214 /caron
8#220 /dotlessi 8#230 /oe 8#231 /OE
8#240 /space 8#241 /exclamdown 8#242 /cent 8#243 /sterling
8#244 /currency 8#245 /yen 8#246 /brokenbar 8#247 /section 8#250 /dieresis
8#251 /copyright 8#252 /ordfeminine 8#253 /guillemotleft 8#254 /logicalnot
8#255 /endash 8#256 /registered 8#257 /macron 8#260 /degree 8#261 /plusminus
8#262 /twosuperior 8#263 /threesuperior 8#264 /acute 8#265 /mu 8#266 /paragraph
8#267 /periodcentered 8#270 /cedilla 8#271 /onesuperior 8#272 /ordmasculine
8#273 /guillemotright 8#274 /onequarter 8#275 /onehalf
8#276 /threequarters 8#277 /questiondown 8#300 /Agrave 8#301 /Aacute
8#302 /Acircumflex 8#303 /Atilde 8#304 /Adieresis 8#305 /Aring
8#306 /AE 8#307 /Ccedilla 8#310 /Egrave 8#311 /Eacute
8#312 /Ecircumflex 8#313 /Edieresis 8#314 /Igrave 8#315 /Iacute
8#316 /Icircumflex 8#317 /Idieresis 8#320 /Eth 8#321 /Ntilde 8#322 /Ograve
8#323 /Oacute 8#324 /Ocircumflex 8#325 /Otilde 8#326 /Odieresis 8#327 /multiply
8#330 /Oslash 8#331 /Ugrave 8#332 /Uacute 8#333 /Ucircumflex
8#334 /Udieresis 8#335 /Yacute 8#336 /Thorn 8#337 /germandbls 8#340 /agrave
8#341 /aacute 8#342 /acircumflex 8#343 /atilde 8#344 /adieresis 8#345 /aring
8#346 /ae 8#347 /ccedilla 8#350 /egrave 8#351 /eacute
8#352 /ecircumflex 8#353 /edieresis 8#354 /igrave 8#355 /iacute
8#356 /icircumflex 8#357 /idieresis 8#360 /eth 8#361 /ntilde 8#362 /ograve
8#363 /oacute 8#364 /ocircumflex 8#365 /otilde 8#366 /odieresis 8#367 /divide
8#370 /oslash 8#371 /ugrave 8#372 /uacute 8#373 /ucircumflex
8#374 /udieresis 8#375 /yacute 8#376 /thorn 8#377 /ydieresis] def
/Times-Roman /Times-Roman-iso isovec ReEncode
/Times-Roman /Times-Roman-iso isovec ReEncode
/$F2psBegin {$F2psDict begin /$F2psEnteredState save def} def
/$F2psEnd {$F2psEnteredState restore end} def
%%EndProlog

$F2psBegin
10 setmiterlimit
n -1000 5812 m -1000 -1000 l 6728 -1000 l 6728 5812 l cp clip
 0.06000 0.06000 sc
/Times-Roman-iso ff 150.00 scf sf
975 4275 m
gs 1 -1 sc (Impitoyable 1992) col0 sh gr
/Times-Roman-iso ff 150.00 scf sf
975 4500 m
gs 1 -1 sc (Shining 1980) col0 sh gr
/Times-Roman-iso ff 150.00 scf sf
975 4725 m
gs 1 -1 sc (Smoke 1995) col0 sh gr
/Times-Roman-iso ff 150.00 scf sf
900 1050 m
gs 1 -1 sc (Jurassic Park 1992) col0 sh gr
/Times-Roman-iso ff 150.00 scf sf
900 1275 m
gs 1 -1 sc (Twin Peaks 1990) col0 sh gr
/Times-Roman-iso ff 150.00 scf sf
900 1500 m
gs 1 -1 sc (Easy Rider 1969) col0 sh gr
/Times-Roman-iso ff 150.00 scf sf
2625 3975 m
gs 1 -1 sc (Manhattan 1979) col0 sh gr
/Times-Roman-iso ff 150.00 scf sf
2625 4200 m
gs 1 -1 sc (Metropolis 1926) col0 sh gr
/Times-Roman-iso ff 150.00 scf sf
2625 4425 m
gs 1 -1 sc (Casablanca 1942) col0 sh gr
/Times-Roman-iso ff 150.00 scf sf
2625 4650 m
gs 1 -1 sc (Reservoir Dogs 1992) col0 sh gr
% Polyline
7.500 slw
gs  clippath
4305 4095 m 4425 4125 l 4305 4155 l 4440 4155 l 4440 4095 l cp
clip
n 3975 4125 m 4425 4125 l gs col0 s gr gr

% arrowhead
n 4305 4095 m 4425 4125 l 4305 4155 l 4305 4125 l 4305 4095 l  cp gs 0.00 setgray ef gr  col0 s
/Times-Roman-iso ff 150.00 scf sf
376 2176 m
gs 1 -1 sc (0) col0 sh gr
/Times-Roman-iso ff 150.00 scf sf
376 2476 m
gs 1 -1 sc (1) col0 sh gr
/Times-Roman-iso ff 150.00 scf sf
376 2776 m
gs 1 -1 sc (2) col0 sh gr
/Times-Roman-iso ff 150.00 scf sf
376 3076 m
gs 1 -1 sc (3) col0 sh gr
/Times-Roman-iso ff 150.00 scf sf
376 3376 m
gs 1 -1 sc (4) col0 sh gr
/Times-Roman-iso ff 150.00 scf sf
2625 1275 m
gs 1 -1 sc (Underground 1995) col0 sh gr
/Times-Roman-iso ff 150.00 scf sf
150 3675 m
gs 1 -1 sc (R\351pertoire) col0 sh gr
/Times-Roman-iso ff 150.00 scf sf
4575 3975 m
gs 1 -1 sc (Citizen Kane 1941) col0 sh gr
/Times-Roman-iso ff 150.00 scf sf
4050 2625 m
gs 1 -1 sc (Vertigo 1958) col0 sh gr
/Times-Roman-iso ff 150.00 scf sf
4050 2850 m
gs 1 -1 sc (Greystoke 1984) col0 sh gr
% Polyline
n 825 4050 m 2100 4050 l 2100 4800 l 825 4800 l cp gs col-1 s gr 
% Polyline
n 825 825 m 2100 825 l 2100 1725 l 825 1725 l cp gs col-1 s gr 
% Polyline
n 2550 3750 m 3975 3750 l 3975 4725 l 2550 4725 l cp gs col-1 s gr 
% Polyline
gs  clippath
1605 3930 m 1575 4050 l 1545 3930 l 1545 4065 l 1605 4065 l cp
clip
n 600 3300 m 1575 3300 l 1575 4050 l gs col-1 s gr gr

% arrowhead
n 1605 3930 m 1575 4050 l 1545 3930 l 1575 3930 l 1605 3930 l  cp gs 0.00 setgray ef gr  col-1 s
% Polyline
gs  clippath
2805 3630 m 2775 3750 l 2745 3630 l 2745 3765 l 2805 3765 l cp
clip
n 600 3000 m 2775 3000 l 2775 3750 l gs col-1 s gr gr

% arrowhead
n 2805 3630 m 2775 3750 l 2745 3630 l 2775 3630 l 2805 3630 l  cp gs 0.00 setgray ef gr  col-1 s
% Polyline
gs  clippath
3780 2670 m 3900 2700 l 3780 2730 l 3915 2730 l 3915 2670 l cp
clip
n 600 2700 m 3900 2700 l gs col-1 s gr gr

% arrowhead
n 3780 2670 m 3900 2700 l 3780 2730 l 3780 2700 l 3780 2670 l  cp gs 0.00 setgray ef gr  col-1 s
% Polyline
gs  clippath
3495 1845 m 3525 1725 l 3555 1845 l 3555 1710 l 3495 1710 l cp
clip
n 600 2400 m 3525 2400 l 3525 1725 l gs col-1 s gr gr

% arrowhead
n 3495 1845 m 3525 1725 l 3555 1845 l 3525 1845 l 3495 1845 l  cp gs 0.00 setgray ef gr  col-1 s
% Polyline
gs  clippath
1545 1845 m 1575 1725 l 1605 1845 l 1605 1710 l 1545 1710 l cp
clip
n 600 2100 m 1575 2100 l 1575 1725 l gs col-1 s gr gr

% arrowhead
n 1545 1845 m 1575 1725 l 1605 1845 l 1575 1845 l 1545 1845 l  cp gs 0.00 setgray ef gr  col-1 s
% Polyline
n 226 2251 m 601 2251 l gs col-1 s gr 
% Polyline
n 226 2551 m 601 2551 l gs col-1 s gr 
% Polyline
n 226 2851 m 601 2851 l gs col-1 s gr 
% Polyline
n 226 3151 m 601 3151 l gs col-1 s gr 
% Polyline
n 226 3451 m 601 3451 l gs col-1 s gr 
% Polyline
n 226 1951 m 601 1951 l 601 3451 l 226 3451 l cp gs col-1 s gr 
% Polyline
n 2475 825 m 3900 825 l 3900 1725 l 2475 1725 l cp gs col-1 s gr 
% Polyline
n 4425 3750 m 5700 3750 l 5700 4500 l 4425 4500 l cp gs col-1 s gr 
% Polyline
n 3900 2175 m 5100 2175 l 5100 3000 l 3900 3000 l cp gs col-1 s gr 
$F2psEnd
rs
