%!PS-Adobe-2.0 EPSF-2.0
%%Title: idxdense2.eps
%%Creator: fig2dev Version 3.2.3 Patchlevel 
%%CreationDate: Fri Mar 15 10:46:58 2002
%%For: rigaux@cartier (Philippe Rigaux)
%%BoundingBox: 0 0 357 181
%%Magnification: 1.0000
%%EndComments
/$F2psDict 200 dict def
$F2psDict begin
$F2psDict /mtrx matrix put
/col-1 {0 setgray} bind def
/col0 {0.000 0.000 0.000 srgb} bind def
/col1 {0.000 0.000 1.000 srgb} bind def
/col2 {0.000 1.000 0.000 srgb} bind def
/col3 {0.000 1.000 1.000 srgb} bind def
/col4 {1.000 0.000 0.000 srgb} bind def
/col5 {1.000 0.000 1.000 srgb} bind def
/col6 {1.000 1.000 0.000 srgb} bind def
/col7 {1.000 1.000 1.000 srgb} bind def
/col8 {0.000 0.000 0.560 srgb} bind def
/col9 {0.000 0.000 0.690 srgb} bind def
/col10 {0.000 0.000 0.820 srgb} bind def
/col11 {0.530 0.810 1.000 srgb} bind def
/col12 {0.000 0.560 0.000 srgb} bind def
/col13 {0.000 0.690 0.000 srgb} bind def
/col14 {0.000 0.820 0.000 srgb} bind def
/col15 {0.000 0.560 0.560 srgb} bind def
/col16 {0.000 0.690 0.690 srgb} bind def
/col17 {0.000 0.820 0.820 srgb} bind def
/col18 {0.560 0.000 0.000 srgb} bind def
/col19 {0.690 0.000 0.000 srgb} bind def
/col20 {0.820 0.000 0.000 srgb} bind def
/col21 {0.560 0.000 0.560 srgb} bind def
/col22 {0.690 0.000 0.690 srgb} bind def
/col23 {0.820 0.000 0.820 srgb} bind def
/col24 {0.500 0.190 0.000 srgb} bind def
/col25 {0.630 0.250 0.000 srgb} bind def
/col26 {0.750 0.380 0.000 srgb} bind def
/col27 {1.000 0.500 0.500 srgb} bind def
/col28 {1.000 0.630 0.630 srgb} bind def
/col29 {1.000 0.750 0.750 srgb} bind def
/col30 {1.000 0.880 0.880 srgb} bind def
/col31 {1.000 0.840 0.000 srgb} bind def

end
save
newpath 0 181 moveto 0 0 lineto 357 0 lineto 357 181 lineto closepath clip newpath
-13.0 194.0 translate
1 -1 scale

/cp {closepath} bind def
/ef {eofill} bind def
/gr {grestore} bind def
/gs {gsave} bind def
/sa {save} bind def
/rs {restore} bind def
/l {lineto} bind def
/m {moveto} bind def
/rm {rmoveto} bind def
/n {newpath} bind def
/s {stroke} bind def
/sh {show} bind def
/slc {setlinecap} bind def
/slj {setlinejoin} bind def
/slw {setlinewidth} bind def
/srgb {setrgbcolor} bind def
/rot {rotate} bind def
/sc {scale} bind def
/sd {setdash} bind def
/ff {findfont} bind def
/sf {setfont} bind def
/scf {scalefont} bind def
/sw {stringwidth} bind def
/tr {translate} bind def
/tnt {dup dup currentrgbcolor
  4 -2 roll dup 1 exch sub 3 -1 roll mul add
  4 -2 roll dup 1 exch sub 3 -1 roll mul add
  4 -2 roll dup 1 exch sub 3 -1 roll mul add srgb}
  bind def
/shd {dup dup currentrgbcolor 4 -2 roll mul 4 -2 roll mul
  4 -2 roll mul srgb} bind def
/$F2psBegin {$F2psDict begin /$F2psEnteredState save def} def
/$F2psEnd {$F2psEnteredState restore end} def

$F2psBegin
%%Page: 1 1
10 setmiterlimit
 0.06000 0.06000 sc
% Polyline
n 330 225 m 225 225 225 3120 105 arcto 4 {pop} repeat
  225 3225 6045 3225 105 arcto 4 {pop} repeat
  6150 3225 6150 330 105 arcto 4 {pop} repeat
  6150 225 330 225 105 arcto 4 {pop} repeat
 cp gs col7 1.00 shd ef gr 
% Polyline
7.500 slw
gs  clippath
3690 2430 m 3690 2370 l 3539 2370 l 3659 2400 l 3539 2430 l cp
eoclip
n 525 675 m 525 1125 l 3450 1125 l 3450 2400 l
 3675 2400 l gs col7 1.00 shd ef gr gs col0 s gr gr

% arrowhead
n 3539 2430 m 3659 2400 l 3539 2370 l 3539 2430 l  cp gs 0.00 setgray ef gr  col0 s
% Polyline
gs  clippath
2010 1845 m 2010 1905 l 2161 1905 l 2041 1875 l 2161 1845 l cp
eoclip
n 900 675 m 900 1200 l 2475 1200 l 2475 1875 l
 2025 1875 l gs col0 s gr gr

% arrowhead
n 2161 1845 m 2041 1875 l 2161 1905 l 2161 1845 l  cp gs 0.00 setgray ef gr  col0 s
% Polyline
gs  clippath
4365 2130 m 4365 2070 l 4214 2070 l 4334 2100 l 4214 2130 l cp
eoclip
n 1275 675 m 1275 1050 l 3900 1050 l 3900 2100 l
 4350 2100 l gs col0 s gr gr

% arrowhead
n 4214 2130 m 4334 2100 l 4214 2070 l 4214 2130 l  cp gs 0.00 setgray ef gr  col0 s
% Polyline
gs  clippath
3690 2655 m 3690 2595 l 3539 2595 l 3659 2625 l 3539 2655 l cp
eoclip
n 1650 675 m 1650 975 l 3300 975 l 3300 2625 l
 3675 2625 l gs col0 s gr gr

% arrowhead
n 3539 2655 m 3659 2625 l 3539 2595 l 3539 2655 l  cp gs 0.00 setgray ef gr  col0 s
% Polyline
gs  clippath
2010 1620 m 2010 1680 l 2161 1680 l 2041 1650 l 2161 1620 l cp
eoclip
n 3750 675 m 3750 1650 l
 2025 1650 l gs col0 s gr gr

% arrowhead
n 2161 1620 m 2041 1650 l 2161 1680 l 2161 1620 l  cp gs 0.00 setgray ef gr  col0 s
% Polyline
gs  clippath
2010 2070 m 2010 2130 l 2161 2130 l 2041 2100 l 2161 2070 l cp
eoclip
n 2250 675 m 2250 2100 l
 2025 2100 l gs col0 s gr gr

% arrowhead
n 2161 2070 m 2041 2100 l 2161 2130 l 2161 2070 l  cp gs 0.00 setgray ef gr  col0 s
% Polyline
gs  clippath
2010 1395 m 2010 1455 l 2161 1455 l 2041 1425 l 2161 1395 l cp
eoclip
n 2625 675 m 2625 1425 l
 2025 1425 l gs col0 s gr gr

% arrowhead
n 2161 1395 m 2041 1425 l 2161 1455 l 2161 1395 l  cp gs 0.00 setgray ef gr  col0 s
% Polyline
n 5325 1275 m
 5325 1500 l gs col0 s gr 
% Polyline
n 5700 1275 m
 5700 1500 l gs col0 s gr 
% Polyline
n 5325 1500 m
 5325 1725 l gs col0 s gr 
% Polyline
n 5700 1500 m
 5700 1725 l gs col0 s gr 
% Polyline
n 5325 1725 m
 5325 1950 l gs col0 s gr 
% Polyline
n 5700 1725 m
 5700 1950 l gs col0 s gr 
% Polyline
n 5325 1950 m
 5325 2175 l gs col0 s gr 
% Polyline
n 5700 1950 m
 5700 2175 l gs col0 s gr 
% Polyline
n 4350 1275 m 6000 1275 l 6000 1500 l 4350 1500 l
 cp gs col0 s gr 
% Polyline
n 4350 1500 m 6000 1500 l 6000 1725 l 4350 1725 l
 cp gs col0 s gr 
% Polyline
n 4350 1725 m 6000 1725 l 6000 1950 l 4350 1950 l
 cp gs col0 s gr 
% Polyline
n 4350 1950 m 6000 1950 l 6000 2175 l 4350 2175 l
 cp gs col0 s gr 
/Times-Roman ff 150.00 scf sf
5850 1425 m
gs 1 -1 sc (...) col0 sh gr
/Times-Roman ff 150.00 scf sf
5850 1650 m
gs 1 -1 sc (...) col0 sh gr
/Times-Roman ff 150.00 scf sf
5850 1875 m
gs 1 -1 sc (...) col0 sh gr
/Times-Roman ff 150.00 scf sf
5850 2100 m
gs 1 -1 sc (...) col0 sh gr
/Times-Roman ff 150.00 scf sf
4500 1425 m
gs 1 -1 sc (Smoke            1995) col0 sh gr
/Times-Roman ff 150.00 scf sf
4500 1650 m
gs 1 -1 sc (Twin Peaks    1990) col0 sh gr
/Times-Roman ff 150.00 scf sf
4500 1875 m
gs 1 -1 sc (Undergroun   1995) col0 sh gr
/Times-Roman ff 150.00 scf sf
4500 2100 m
gs 1 -1 sc (Vertigo           1958) col0 sh gr
% Polyline
n 1350 1950 m
 1350 2175 l gs col0 s gr 
% Polyline
n 1725 1950 m
 1725 2175 l gs col0 s gr 
% Polyline
n 1350 1725 m
 1350 1950 l gs col0 s gr 
% Polyline
n 1725 1725 m
 1725 1950 l gs col0 s gr 
% Polyline
n 1350 1500 m
 1350 1725 l gs col0 s gr 
% Polyline
n 1725 1500 m
 1725 1725 l gs col0 s gr 
% Polyline
n 1350 1275 m
 1350 1500 l gs col0 s gr 
% Polyline
n 1725 1275 m
 1725 1500 l gs col0 s gr 
% Polyline
n 375 1950 m 2025 1950 l 2025 2175 l 375 2175 l
 cp gs col0 s gr 
% Polyline
n 375 1275 m 2025 1275 l 2025 1500 l 375 1500 l
 cp gs col0 s gr 
% Polyline
n 375 1500 m 2025 1500 l 2025 1725 l 375 1725 l
 cp gs col0 s gr 
% Polyline
n 375 1725 m 2025 1725 l 2025 1950 l 375 1950 l
 cp gs col0 s gr 
/Times-Roman ff 165.00 scf sf
1776 1425 m
gs 1 -1 sc (...) col0 sh gr
/Times-Roman ff 150.00 scf sf
1875 2100 m
gs 1 -1 sc (...) col0 sh gr
/Times-Roman ff 150.00 scf sf
1875 1875 m
gs 1 -1 sc (...) col0 sh gr
/Times-Roman ff 150.00 scf sf
1875 1650 m
gs 1 -1 sc (...) col0 sh gr
/Times-Roman ff 150.00 scf sf
1875 1425 m
gs 1 -1 sc (...) col0 sh gr
/Times-Roman ff 150.00 scf sf
525 1425 m
gs 1 -1 sc (Annie Hall     1977) col0 sh gr
/Times-Roman ff 150.00 scf sf
525 1650 m
gs 1 -1 sc (Brazil             1984) col0 sh gr
/Times-Roman ff 150.00 scf sf
525 1875 m
gs 1 -1 sc (Casablanca     1942) col0 sh gr
/Times-Roman ff 150.00 scf sf
525 2100 m
gs 1 -1 sc (Easy Rider      1969) col0 sh gr
% Polyline
n 2475 2475 m
 2475 2700 l gs col0 s gr 
% Polyline
n 2475 2250 m
 2475 2475 l gs col0 s gr 
% Polyline
n 2850 2250 m
 2850 2475 l gs col0 s gr 
% Polyline
n 2850 2475 m
 2850 2700 l gs col0 s gr 
% Polyline
n 2475 2700 m
 2475 2925 l gs col0 s gr 
% Polyline
n 2850 2700 m
 2850 2925 l gs col0 s gr 
% Polyline
n 2475 2925 m
 2475 3150 l gs col0 s gr 
% Polyline
n 2850 2925 m
 2850 3150 l gs col0 s gr 
% Polyline
n 1500 2250 m 3150 2250 l 3150 2475 l 1500 2475 l
 cp gs col0 s gr 
% Polyline
n 1500 2475 m 3150 2475 l 3150 2700 l 1500 2700 l
 cp gs col0 s gr 
% Polyline
n 1500 2700 m 3150 2700 l 3150 2925 l 1500 2925 l
 cp gs col0 s gr 
% Polyline
n 1500 2925 m 3150 2925 l 3150 3150 l 1500 3150 l
 cp gs col0 s gr 
/Times-Roman ff 150.00 scf sf
2400 2400 m
gs 1 -1 sc ( ) col0 sh gr
/Times-Roman ff 150.00 scf sf
3000 2400 m
gs 1 -1 sc (...) col0 sh gr
/Times-Roman ff 150.00 scf sf
3000 2625 m
gs 1 -1 sc (...) col0 sh gr
/Times-Roman ff 150.00 scf sf
3000 2850 m
gs 1 -1 sc (...) col0 sh gr
/Times-Roman ff 150.00 scf sf
2325 3150 m
gs 1 -1 sc ( ) col0 sh gr
/Times-Roman ff 150.00 scf sf
3000 3075 m
gs 1 -1 sc (...) col0 sh gr
/Times-Roman ff 150.00 scf sf
1650 2400 m
gs 1 -1 sc (Greystoke       1984) col0 sh gr
/Times-Roman ff 150.00 scf sf
1650 2625 m
gs 1 -1 sc (Jurassic Park  1992) col0 sh gr
/Times-Roman ff 150.00 scf sf
1650 2850 m
gs 1 -1 sc (Impitoyable    1992) col0 sh gr
/Times-Roman ff 150.00 scf sf
1650 3075 m
gs 1 -1 sc (Manhattan     1979) col0 sh gr
% Polyline
n 4650 2250 m
 4650 2475 l gs col0 s gr 
% Polyline
n 5025 2250 m
 5025 2475 l gs col0 s gr 
% Polyline
n 4650 2475 m
 4650 2700 l gs col0 s gr 
% Polyline
n 5025 2475 m
 5025 2700 l gs col0 s gr 
% Polyline
n 4650 2700 m
 4650 2925 l gs col0 s gr 
% Polyline
n 5025 2700 m
 5025 2925 l gs col0 s gr 
% Polyline
n 4650 2925 m
 4650 3150 l gs col0 s gr 
% Polyline
n 5025 2925 m
 5025 3150 l gs col0 s gr 
% Polyline
n 3675 2250 m 5325 2250 l 5325 2475 l 3675 2475 l
 cp gs col0 s gr 
% Polyline
n 3675 2475 m 5325 2475 l 5325 2700 l 3675 2700 l
 cp gs col0 s gr 
% Polyline
n 3675 2700 m 5325 2700 l 5325 2925 l 3675 2925 l
 cp gs col0 s gr 
% Polyline
n 3675 2925 m 5325 2925 l 5325 3150 l 3675 3150 l
 cp gs col0 s gr 
/Times-Roman ff 150.00 scf sf
5175 2400 m
gs 1 -1 sc (...) col0 sh gr
/Times-Roman ff 150.00 scf sf
5175 2625 m
gs 1 -1 sc (...) col0 sh gr
/Times-Roman ff 150.00 scf sf
5175 2850 m
gs 1 -1 sc (...) col0 sh gr
/Times-Roman ff 150.00 scf sf
5175 3075 m
gs 1 -1 sc (...) col0 sh gr
/Times-Roman ff 150.00 scf sf
3750 2400 m
gs 1 -1 sc (Metropolis        1926) col0 sh gr
/Times-Roman ff 150.00 scf sf
3750 2625 m
gs 1 -1 sc (Psychose           1960) col0 sh gr
/Times-Roman ff 150.00 scf sf
3750 2850 m
gs 1 -1 sc (Reservoir Dogs 1992) col0 sh gr
/Times-Roman ff 150.00 scf sf
3750 3075 m
gs 1 -1 sc (Shining             1980) col0 sh gr
% Polyline
n 375 600 m 6150 600 l 6150 825 l 375 825 l
 cp gs col0 s gr 
% Polyline
n 375 375 m 6150 375 l 6150 600 l 375 600 l
 cp gs col0 s gr 
/Times-Roman ff 150.00 scf sf
375 525 m
gs 1 -1 sc (1926) col0 sh gr
/Times-Roman ff 150.00 scf sf
750 525 m
gs 1 -1 sc (1942) col0 sh gr
/Times-Roman ff 150.00 scf sf
1125 525 m
gs 1 -1 sc (1958) col0 sh gr
/Times-Roman ff 150.00 scf sf
1500 525 m
gs 1 -1 sc (1960) col0 sh gr
/Times-Roman ff 150.00 scf sf
1875 525 m
gs 1 -1 sc (1969) col0 sh gr
/Times-Roman ff 150.00 scf sf
2250 525 m
gs 1 -1 sc (1977) col0 sh gr
/Times-Roman ff 150.00 scf sf
2625 525 m
gs 1 -1 sc (1979) col0 sh gr
/Times-Roman ff 150.00 scf sf
3000 525 m
gs 1 -1 sc (1980) col0 sh gr
/Times-Roman ff 150.00 scf sf
3375 525 m
gs 1 -1 sc (1984) col0 sh gr
/Times-Roman ff 150.00 scf sf
3750 525 m
gs 1 -1 sc (1984) col0 sh gr
/Times-Roman ff 150.00 scf sf
4125 525 m
gs 1 -1 sc (1990) col0 sh gr
/Times-Roman ff 150.00 scf sf
5850 525 m
gs 1 -1 sc (1995) col0 sh gr
/Times-Roman ff 150.00 scf sf
5475 525 m
gs 1 -1 sc (1995) col0 sh gr
/Times-Roman ff 150.00 scf sf
5175 525 m
gs 1 -1 sc (1992) col0 sh gr
/Times-Roman ff 150.00 scf sf
4500 525 m
gs 1 -1 sc (1992) col0 sh gr
/Times-Roman ff 150.00 scf sf
4875 525 m
gs 1 -1 sc (1992) col0 sh gr
$F2psEnd
rs
