#FIG 3.2
Landscape
Center
Inches
A4      
100.00
Single
-2
1200 2
6 75 1875 6600 3225
6 450 1950 6600 3150
6 525 2025 6600 2250
4 0 0 0 0 3 10 0.0000 4 150 810 525 2175 Vertigo 1958\001
4 0 0 0 0 3 10 0.0000 4 105 750 1425 2175 Brazil  1984\001
4 0 0 0 0 3 10 0.0000 4 105 1050 2250 2175 Twin Peaks 1990\001
4 0 0 0 0 3 10 0.0000 4 150 1155 3375 2175 Underground 1995\001
4 0 0 0 0 3 10 0.0000 4 135 1035 4575 2175 Easy Rider 1969\001
4 0 0 0 0 3 10 0.0000 4 135 915 5625 2175 Psychose 1960\001
-6
6 975 2925 6525 3150
4 0 0 0 0 3 10 0.0000 4 150 1095 3450 3075 Impitoyable 1992\001
4 0 0 0 0 3 10 0.0000 4 105 1065 4650 3075 Casablanca 1942\001
4 0 0 0 0 3 10 0.0000 4 105 750 5775 3075 Smoke 1995\001
4 0 0 0 0 3 10 0.0000 4 150 1275 2100 3075 Reservoir Dogs 1992\001
4 0 0 0 0 3 10 0.0000 4 105 1050 975 3075 Manhattan 1979\001
-6
2 2 0 1 0 7 0 0 -1 0.000 0 0 -1 0 0 5
	 450 1950 6525 1950 6525 2250 450 2250 450 1950
2 1 0 1 0 7 0 0 -1 0.000 0 0 7 0 0 2
	 1350 1950 1350 2250
2 1 0 1 0 7 0 0 -1 0.000 0 0 7 0 0 2
	 2175 1950 2175 2250
2 1 0 1 0 7 0 0 -1 0.000 0 0 7 0 0 2
	 3300 1950 3300 2250
2 1 0 1 0 7 0 0 -1 0.000 0 0 7 0 0 2
	 4500 1950 4500 2250
2 1 0 1 0 7 0 0 -1 0.000 0 0 7 0 0 2
	 5550 1950 5550 2250
2 2 0 1 0 7 0 0 -1 0.000 0 0 -1 0 0 5
	 900 2400 6525 2400 6525 2700 900 2700 900 2400
2 1 0 1 0 7 0 0 -1 0.000 0 0 7 0 0 2
	 1950 2400 1950 2700
2 1 0 1 0 7 0 0 -1 0.000 0 0 7 0 0 2
	 2925 2400 2925 2700
2 1 0 1 0 7 0 0 -1 0.000 0 0 7 0 0 2
	 4125 2400 4125 2700
2 1 0 1 0 7 0 0 -1 0.000 0 0 7 0 0 2
	 5400 2400 5400 2700
2 2 0 1 0 7 0 0 -1 0.000 0 0 -1 0 0 5
	 900 2850 6525 2850 6525 3150 900 3150 900 2850
2 1 0 1 0 7 0 0 -1 0.000 0 0 7 0 0 2
	 2025 2850 2025 3150
2 1 0 1 0 7 0 0 -1 0.000 0 0 7 0 0 2
	 3375 2850 3375 3150
2 1 0 1 0 7 0 0 -1 0.000 0 0 7 0 0 2
	 4575 2850 4575 3150
2 1 0 1 0 7 0 0 -1 0.000 0 0 7 0 0 2
	 5700 2850 5700 3150
2 1 0 1 0 7 0 0 -1 0.000 0 0 -1 1 0 6
	1 1 1.00 60.00 120.00
	 6525 2100 6600 2100 6600 2325 675 2325 675 2550 900 2550
2 1 0 1 0 7 0 0 -1 0.000 0 0 -1 1 0 6
	1 1 1.00 60.00 120.00
	 6525 2550 6600 2550 6600 2775 675 2775 675 3000 900 3000
4 0 0 0 0 3 10 0.0000 4 135 990 975 2625 Greystoke 1984\001
4 0 0 0 0 3 10 0.0000 4 150 795 2100 2625 Shining 1980\001
4 0 0 0 0 3 10 0.0000 4 105 1005 3075 2625 Annie Hall 1977\001
4 0 0 0 0 3 10 0.0000 4 120 1185 4200 2625 Jurassic Park 1992\001
4 0 0 0 0 3 10 0.0000 4 150 1050 5475 2625 Metropolis 1926\001
-6
2 1 0 1 0 7 100 0 -1 0.000 0 0 -1 0 0 4
	 450 1875 375 1875 375 3225 450 3225
4 0 0 100 0 0 10 1.5708 4 120 510 225 2925 Donn\351es\001
-6
6 675 750 1425 1425
4 0 0 100 0 0 10 0.0000 4 105 705 675 900 Annie Hall\001
4 0 0 100 0 0 10 0.0000 4 105 390 675 1050 Brazil\001
4 0 0 100 0 0 10 0.0000 4 105 675 675 1200 Casablanca\001
4 0 0 100 0 0 10 0.0000 4 135 660 675 1350 Easy Rider\001
-6
6 2025 750 2850 1350
4 0 0 100 0 0 10 0.0000 4 135 765 2025 1050 Impitoyable\001
4 0 0 100 0 0 10 0.0000 4 105 795 2025 1200 Jurassic Park\001
4 0 0 100 0 0 10 0.0000 4 135 630 2025 900 Greystoke\001
4 0 0 100 0 0 10 0.0000 4 105 675 2025 1350 Manhattan\001
-6
6 2175 75 4350 375
2 2 0 1 0 7 100 0 -1 0.000 0 0 -1 0 0 5
	 2175 75 4350 75 4350 375 2175 375 2175 75
4 0 0 100 0 0 10 0.0000 4 135 660 2325 225 Easy Rider\001
4 0 0 100 0 0 10 0.0000 4 105 675 3075 225 Manhattan\001
4 0 0 100 0 0 10 0.0000 4 135 465 3825 225 Shining\001
-6
2 2 0 1 0 7 100 0 -1 0.000 0 0 -1 0 0 5
	 600 675 1575 675 1575 1425 600 1425 600 675
2 2 0 1 0 7 100 0 -1 0.000 0 0 -1 0 0 5
	 1950 675 2925 675 2925 1425 1950 1425 1950 675
2 2 0 1 0 7 100 0 -1 0.000 0 0 -1 0 0 5
	 3225 675 4200 675 4200 1425 3225 1425 3225 675
2 2 0 1 0 7 100 0 -1 0.000 0 0 -1 0 0 5
	 4650 675 5625 675 5625 1425 4650 1425 4650 675
2 1 0 1 0 7 100 0 -1 0.000 0 0 -1 0 0 4
	 450 1725 375 1725 375 75 450 75
2 1 0 1 0 7 100 0 -1 0.000 0 0 -1 1 0 4
	1 1 1.00 60.00 120.00
	 2250 225 2250 450 1125 450 1125 675
2 1 0 1 0 7 100 0 -1 0.000 0 0 -1 1 0 4
	1 1 1.00 60.00 120.00
	 3000 225 3000 525 2475 525 2475 675
2 1 0 1 0 7 100 0 -1 0.000 0 0 -1 1 0 2
	1 1 1.00 60.00 120.00
	 3750 225 3750 675
2 1 0 1 0 7 100 0 -1 0.000 0 0 -1 1 0 4
	1 1 1.00 60.00 120.00
	 4275 225 4275 450 5100 450 5100 675
2 1 0 1 0 7 100 0 -1 0.000 0 0 -1 1 0 5
	1 1 1.00 60.00 120.00
	 5400 1350 5775 1350 5775 1650 600 1650 600 1950
2 1 0 1 0 7 100 0 -1 0.000 0 0 -1 1 0 3
	1 1 1.00 60.00 120.00
	 1500 975 1725 975 1725 1950
2 1 0 1 0 7 100 0 -1 0.000 0 0 -1 1 0 5
	1 1 1.00 60.00 120.00
	 5550 975 5925 975 5925 1725 2625 1725 2625 1950
2 1 0 1 0 7 100 0 -1 0.000 0 0 -1 1 0 5
	1 1 1.00 60.00 120.00
	 5550 1200 5850 1200 5850 1800 3750 1800 3750 1950
2 1 0 1 0 7 100 0 -1 0.000 0 0 -1 1 0 5
	1 1 1.00 60.00 120.00
	 1425 1275 1875 1275 1875 1500 5025 1500 5025 1950
2 1 0 1 0 7 100 0 -1 0.000 0 0 -1 1 0 5
	1 1 1.00 60.00 120.00
	 3975 975 4425 975 4425 1575 6150 1575 6150 1950
2 1 0 1 0 7 100 0 -1 0.000 0 0 -1 0 0 1
	 5250 2250
2 1 2 1 0 7 100 0 -1 1.000 0 0 -1 1 0 2
	1 1 1.00 60.00 120.00
	 1575 750 1950 750
2 1 2 1 0 7 100 0 -1 1.000 0 0 -1 1 0 2
	1 1 1.00 60.00 120.00
	 2925 750 3225 750
2 1 2 1 0 7 100 0 -1 1.000 0 0 -1 1 0 2
	1 1 1.00 60.00 120.00
	 4200 750 4650 750
2 4 0 0 0 7 300 0 20 0.000 0 0 7 0 0 5
	 6675 3450 6675 0 75 0 75 3450 6675 3450
4 0 0 100 0 0 10 1.5708 4 105 360 225 1050 Index\001
4 0 0 100 0 0 10 0.0000 4 135 945 3300 1200 Reservoir Dogs\001
4 0 0 100 0 0 10 0.0000 4 135 465 3300 1350 Shining\001
4 0 0 100 0 0 10 0.0000 4 135 720 3300 900 Metropolis\001
4 0 0 100 0 0 10 0.0000 4 135 555 3300 1050 Psychose\001
4 0 0 100 0 0 10 0.0000 4 135 825 4725 1200 Underground\001
4 0 0 100 0 0 10 0.0000 4 135 495 4725 1350 Vertigo\001
4 0 0 100 0 0 10 0.0000 4 105 705 4725 1050 Twin Peaks\001
4 0 0 100 0 0 10 0.0000 4 105 405 4725 900 Smoke\001
