%!PS-Adobe-2.0 EPSF-2.0
%%Title: noeud.eps
%%Creator: fig2dev Version 3.2.3 Patchlevel 
%%CreationDate: Fri May 24 23:19:34 2002
%%For: rigaux@cartier (Philippe Rigaux)
%%BoundingBox: 0 0 238 47
%%Magnification: 1.0000
%%EndComments
/$F2psDict 200 dict def
$F2psDict begin
$F2psDict /mtrx matrix put
/col-1 {0 setgray} bind def
/col0 {0.000 0.000 0.000 srgb} bind def
/col1 {0.000 0.000 1.000 srgb} bind def
/col2 {0.000 1.000 0.000 srgb} bind def
/col3 {0.000 1.000 1.000 srgb} bind def
/col4 {1.000 0.000 0.000 srgb} bind def
/col5 {1.000 0.000 1.000 srgb} bind def
/col6 {1.000 1.000 0.000 srgb} bind def
/col7 {1.000 1.000 1.000 srgb} bind def
/col8 {0.000 0.000 0.560 srgb} bind def
/col9 {0.000 0.000 0.690 srgb} bind def
/col10 {0.000 0.000 0.820 srgb} bind def
/col11 {0.530 0.810 1.000 srgb} bind def
/col12 {0.000 0.560 0.000 srgb} bind def
/col13 {0.000 0.690 0.000 srgb} bind def
/col14 {0.000 0.820 0.000 srgb} bind def
/col15 {0.000 0.560 0.560 srgb} bind def
/col16 {0.000 0.690 0.690 srgb} bind def
/col17 {0.000 0.820 0.820 srgb} bind def
/col18 {0.560 0.000 0.000 srgb} bind def
/col19 {0.690 0.000 0.000 srgb} bind def
/col20 {0.820 0.000 0.000 srgb} bind def
/col21 {0.560 0.000 0.560 srgb} bind def
/col22 {0.690 0.000 0.690 srgb} bind def
/col23 {0.820 0.000 0.820 srgb} bind def
/col24 {0.500 0.190 0.000 srgb} bind def
/col25 {0.630 0.250 0.000 srgb} bind def
/col26 {0.750 0.380 0.000 srgb} bind def
/col27 {1.000 0.500 0.500 srgb} bind def
/col28 {1.000 0.630 0.630 srgb} bind def
/col29 {1.000 0.750 0.750 srgb} bind def
/col30 {1.000 0.880 0.880 srgb} bind def
/col31 {1.000 0.840 0.000 srgb} bind def

end
save
newpath 0 47 moveto 0 0 lineto 238 0 lineto 238 47 lineto closepath clip newpath
-17.0 59.0 translate
1 -1 scale

/cp {closepath} bind def
/ef {eofill} bind def
/gr {grestore} bind def
/gs {gsave} bind def
/sa {save} bind def
/rs {restore} bind def
/l {lineto} bind def
/m {moveto} bind def
/rm {rmoveto} bind def
/n {newpath} bind def
/s {stroke} bind def
/sh {show} bind def
/slc {setlinecap} bind def
/slj {setlinejoin} bind def
/slw {setlinewidth} bind def
/srgb {setrgbcolor} bind def
/rot {rotate} bind def
/sc {scale} bind def
/sd {setdash} bind def
/ff {findfont} bind def
/sf {setfont} bind def
/scf {scalefont} bind def
/sw {stringwidth} bind def
/tr {translate} bind def
/tnt {dup dup currentrgbcolor
  4 -2 roll dup 1 exch sub 3 -1 roll mul add
  4 -2 roll dup 1 exch sub 3 -1 roll mul add
  4 -2 roll dup 1 exch sub 3 -1 roll mul add srgb}
  bind def
/shd {dup dup currentrgbcolor 4 -2 roll mul 4 -2 roll mul
  4 -2 roll mul srgb} bind def
/$F2psBegin {$F2psDict begin /$F2psEnteredState save def} def
/$F2psEnd {$F2psEnteredState restore end} def

$F2psBegin
%%Page: 1 1
10 setmiterlimit
 0.06000 0.06000 sc
% Polyline
7.500 slw
n 1200 225 m
 1200 525 l gs col-1 s gr 
% Polyline
n 450 225 m
 450 525 l gs col-1 s gr 
% Polyline
n 750 225 m
 750 525 l gs col-1 s gr 
% Polyline
n 1350 225 m
 1350 525 l gs col-1 s gr 
% Polyline
n 1650 225 m
 1650 525 l gs col-1 s gr 
% Polyline
n 2100 225 m
 2100 525 l gs col-1 s gr 
% Polyline
gs  clippath
345 765 m 405 765 l 405 614 l 375 734 l 345 614 l cp
eoclip
n 375 375 m
 375 750 l gs col-1 s gr gr

% arrowhead
n 345 614 m 375 734 l 405 614 l 345 614 l  cp gs 0.00 setgray ef gr  col-1 s
% Polyline
gs  clippath
1245 765 m 1305 765 l 1305 614 l 1275 734 l 1245 614 l cp
eoclip
n 1275 375 m
 1275 750 l gs col-1 s gr gr

% arrowhead
n 1245 614 m 1275 734 l 1305 614 l 1245 614 l  cp gs 0.00 setgray ef gr  col-1 s
% Polyline
n 4050 225 m
 4050 525 l gs col-1 s gr 
% Polyline
n 3600 225 m
 3600 525 l gs col-1 s gr 
% Polyline
n 3300 225 m
 3300 525 l gs col-1 s gr 
% Polyline
n 3150 225 m
 3150 525 l gs col-1 s gr 
% Polyline
gs  clippath
3195 765 m 3255 765 l 3255 614 l 3225 734 l 3195 614 l cp
eoclip
n 3225 375 m
 3225 750 l gs col-1 s gr gr

% arrowhead
n 3195 614 m 3225 734 l 3255 614 l 3195 614 l  cp gs 0.00 setgray ef gr  col-1 s
% Polyline
gs  clippath
4095 765 m 4155 765 l 4155 614 l 4125 734 l 4095 614 l cp
eoclip
n 4125 375 m
 4125 750 l gs col-1 s gr gr

% arrowhead
n 4095 614 m 4125 734 l 4155 614 l 4095 614 l  cp gs 0.00 setgray ef gr  col-1 s
% Polyline
n 300 225 m 4200 225 l 4200 525 l 300 525 l
 cp gs col-1 s gr 
/Times-Roman ff 150.00 scf sf
525 450 m
gs 1 -1 sc (C1) col-1 sh gr
/Times-Roman ff 150.00 scf sf
900 450 m
gs 1 -1 sc (R1) col-1 sh gr
/Times-Roman ff 150.00 scf sf
2250 450 m
gs 1 -1 sc (...) col-1 sh gr
/Times-Roman ff 150.00 scf sf
1425 450 m
gs 1 -1 sc (C2) col-1 sh gr
/Times-Roman ff 150.00 scf sf
1800 450 m
gs 1 -1 sc (R2) col-1 sh gr
/Times-Roman ff 150.00 scf sf
300 975 m
gs 1 -1 sc (P1) col-1 sh gr
/Times-Roman ff 150.00 scf sf
1200 975 m
gs 1 -1 sc (P2) col-1 sh gr
/Times-Roman ff 150.00 scf sf
3375 450 m
gs 1 -1 sc (Cn) col-1 sh gr
/Times-Roman ff 150.00 scf sf
3750 450 m
gs 1 -1 sc (Rn) col-1 sh gr
/Times-Roman ff 150.00 scf sf
3150 975 m
gs 1 -1 sc (Pn) col-1 sh gr
/Times-Roman ff 150.00 scf sf
3900 975 m
gs 1 -1 sc (Pn+1) col-1 sh gr
$F2psEnd
rs
