#FIG 3.1
Portrait
Center
Inches
1200 2
2 2 1 1 -1 7 0 0 -1 4.000 0 0 7 0 0 5
	 75 150 3150 150 3150 375 75 375 75 150
2 2 1 1 -1 7 1 0 -1 4.000 0 0 7 0 0 5
	 75 1125 3150 1125 3150 1350 75 1350 75 1125
2 2 0 1 -1 7 1 0 -1 0.000 0 0 7 0 0 5
	 75 1125 3150 1125 3150 2175 75 2175 75 1125
2 2 0 1 -1 7 1 0 -1 0.000 0 0 7 0 0 5
	 75 150 3150 150 3150 1050 75 1050 75 150
4 0 -1 0 0 0 10 0.0000000 4 105 480 150 300 Truffaut\001
4 0 -1 0 0 0 10 0.0000000 4 105 990 825 525 Le dernier metro\001
4 0 -1 0 0 0 10 0.0000000 4 135 870 825 750 Les 400 coups\001
4 0 -1 0 0 0 10 0.0000000 4 105 600 150 1275 Hitchcock\001
4 0 -1 0 0 0 10 0.0000000 4 135 450 825 1500 Vertigo\001
4 0 -1 0 0 0 10 0.0000000 4 105 930 825 1725 Les 39 marches\001
4 0 -1 0 0 0 10 0.0000000 4 15 135 825 975 ...\001
4 0 -1 0 0 0 10 0.0000000 4 135 555 825 1950 Psychose\001
