\relax 
\providecommand\hyper@newdestlabel[2]{}
\providecommand*\new@tpo@label[2]{}
\catcode `:\active 
\catcode `;\active 
\catcode `!\active 
\catcode `?\active 
\providecommand\HyperFirstAtBeginDocument{\AtBeginDocument}
\HyperFirstAtBeginDocument{\ifx\hyper@anchor\@undefined
\global\let\oldcontentsline\contentsline
\gdef\contentsline#1#2#3#4{\oldcontentsline{#1}{#2}{#3}}
\global\let\oldnewlabel\newlabel
\gdef\newlabel#1#2{\newlabelxx{#1}#2}
\gdef\newlabelxx#1#2#3#4#5#6{\oldnewlabel{#1}{{#2}{#3}}}
\AtEndDocument{\ifx\hyper@anchor\@undefined
\let\contentsline\oldcontentsline
\let\newlabel\oldnewlabel
\fi}
\fi}
\global\let\hyper@last\relax 
\gdef\HyperFirstAtBeginDocument#1{#1}
\providecommand\HyField@AuxAddToFields[1]{}
\providecommand\HyField@AuxAddToCoFields[2]{}
\providecommand\BKM@entry[2]{}
\BKM@entry{id=1,dest={73656374696F6E2E31},srcline={27}}{526570725C33353173656E746174696F6E2062696E61697265}
\BKM@entry{id=2,dest={73656374696F6E2E32},srcline={154}}{4E6F6D62726573206E5C333531676174696673}
\babel@aux{french}{}
\@writefile{toc}{\contentsline {section}{\numberline {1}Repr\IeC {\'e}sentation binaire}{1}{section.1}\protected@file@percent }
\BKM@entry{id=3,dest={73656374696F6E2E33},srcline={258}}{56697267756C6520666C6F7474616E7465}
\@writefile{toc}{\contentsline {section}{\numberline {2}Nombres n\IeC {\'e}gatifs}{2}{section.2}\protected@file@percent }
\@writefile{toc}{\contentsline {section}{\numberline {3}Virgule flottante}{2}{section.3}\protected@file@percent }
\BKM@entry{id=4,dest={617070656E6469782E41},srcline={406}}{416964652D6D5C3335316D6F697265203A20726570725C33353173656E746174696F6E20646573206E6F6D62726573206E5C333531676174696673}
\BKM@entry{id=5,dest={617070656E6469782E42},srcline={426}}{416964652D6D5C3335316D6F697265203A204945454520373534}
\@writefile{toc}{\contentsline {section}{\numberline {A}Aide-m\IeC {\'e}moire : repr\IeC {\'e}sentation des nombres n\IeC {\'e}gatifs}{3}{appendix.A}\protected@file@percent }
\@writefile{toc}{\contentsline {section}{\numberline {B}Aide-m\IeC {\'e}moire : IEEE 754}{3}{appendix.B}\protected@file@percent }
\global\csname @altsecnumformattrue\endcsname
